%YAML 1.1
%TAG !u! tag:unity3d.com,2011:
--- !u!1 &3213823317528260637
GameObject:
  m_ObjectHideFlags: 0
  m_CorrespondingSourceObject: {fileID: 0}
  m_PrefabInstance: {fileID: 0}
  m_PrefabAsset: {fileID: 0}
  serializedVersion: 6
  m_Component:
  - component: {fileID: 2438277400793402491}
  - component: {fileID: 4613489817737796558}
  - component: {fileID: 6081220738729643113}
  - component: {fileID: 4578304043769029009}
  - component: {fileID: 2895876472971960932}
  m_Layer: 0
  m_Name: TroncPlein
  m_TagString: Untagged
  m_Icon: {fileID: 0}
  m_NavMeshLayer: 0
  m_StaticEditorFlags: 0
  m_IsActive: 1
--- !u!4 &2438277400793402491
Transform:
  m_ObjectHideFlags: 0
  m_CorrespondingSourceObject: {fileID: 0}
  m_PrefabInstance: {fileID: 0}
  m_PrefabAsset: {fileID: 0}
  m_GameObject: {fileID: 3213823317528260637}
  m_LocalRotation: {x: 0.7071068, y: 0, z: 0, w: 0.7071068}
  m_LocalPosition: {x: -46.01, y: 16.57, z: 265.15}
  m_LocalScale: {x: 1, y: 1, z: 1.0588467}
  m_Children: []
  m_Father: {fileID: 0}
  m_RootOrder: 0
  m_LocalEulerAnglesHint: {x: 90, y: 0, z: 0}
--- !u!114 &4613489817737796558
MonoBehaviour:
  m_ObjectHideFlags: 0
  m_CorrespondingSourceObject: {fileID: 0}
  m_PrefabInstance: {fileID: 0}
  m_PrefabAsset: {fileID: 0}
  m_GameObject: {fileID: 3213823317528260637}
  m_Enabled: 1
  m_EditorHideFlags: 0
  m_Script: {fileID: 11500000, guid: 8233d90336aea43098adf6dbabd606a2, type: 3}
  m_Name: 
  m_EditorClassIdentifier: 
  m_MeshFormatVersion: 1
  m_Faces:
  - m_Indexes: 000000000100000002000000010000000300000002000000
    m_SmoothingGroup: 0
    m_Uv:
      m_UseWorldSpace: 0
      m_FlipU: 0
      m_FlipV: 0
      m_SwapUV: 0
      m_Fill: 1
      m_Scale: {x: 1, y: 1}
      m_Offset: {x: 0, y: 0}
      m_Rotation: 0
      m_Anchor: 9
    m_Material: {fileID: 0}
    m_SubmeshIndex: 0
    m_ManualUV: 0
    elementGroup: -1
    m_TextureGroup: -1
  - m_Indexes: 040000000500000006000000050000000700000006000000
    m_SmoothingGroup: 0
    m_Uv:
      m_UseWorldSpace: 0
      m_FlipU: 0
      m_FlipV: 0
      m_SwapUV: 0
      m_Fill: 1
      m_Scale: {x: 1, y: 1}
      m_Offset: {x: 0, y: 0}
      m_Rotation: 0
      m_Anchor: 9
    m_Material: {fileID: 0}
    m_SubmeshIndex: 0
    m_ManualUV: 0
    elementGroup: -1
    m_TextureGroup: -1
  - m_Indexes: 08000000090000000a000000090000000b0000000a000000
    m_SmoothingGroup: 0
    m_Uv:
      m_UseWorldSpace: 0
      m_FlipU: 0
      m_FlipV: 0
      m_SwapUV: 0
      m_Fill: 1
      m_Scale: {x: 1, y: 1}
      m_Offset: {x: 0, y: 0}
      m_Rotation: 0
      m_Anchor: 9
    m_Material: {fileID: 0}
    m_SubmeshIndex: 0
    m_ManualUV: 0
    elementGroup: -1
    m_TextureGroup: -1
  - m_Indexes: 0c0000000d0000000e0000000d0000000f0000000e000000
    m_SmoothingGroup: 0
    m_Uv:
      m_UseWorldSpace: 0
      m_FlipU: 0
      m_FlipV: 0
      m_SwapUV: 0
      m_Fill: 1
      m_Scale: {x: 1, y: 1}
      m_Offset: {x: 0, y: 0}
      m_Rotation: 0
      m_Anchor: 9
    m_Material: {fileID: 0}
    m_SubmeshIndex: 0
    m_ManualUV: 0
    elementGroup: -1
    m_TextureGroup: -1
  - m_Indexes: 100000001100000012000000110000001300000012000000
    m_SmoothingGroup: 0
    m_Uv:
      m_UseWorldSpace: 0
      m_FlipU: 0
      m_FlipV: 0
      m_SwapUV: 0
      m_Fill: 1
      m_Scale: {x: 1, y: 1}
      m_Offset: {x: 0, y: 0}
      m_Rotation: 0
      m_Anchor: 9
    m_Material: {fileID: 0}
    m_SubmeshIndex: 0
    m_ManualUV: 0
    elementGroup: -1
    m_TextureGroup: -1
  - m_Indexes: 140000001500000016000000150000001700000016000000
    m_SmoothingGroup: 0
    m_Uv:
      m_UseWorldSpace: 0
      m_FlipU: 0
      m_FlipV: 0
      m_SwapUV: 0
      m_Fill: 1
      m_Scale: {x: 1, y: 1}
      m_Offset: {x: 0, y: 0}
      m_Rotation: 0
      m_Anchor: 9
    m_Material: {fileID: 0}
    m_SubmeshIndex: 0
    m_ManualUV: 0
    elementGroup: -1
    m_TextureGroup: -1
  - m_Indexes: 18000000190000001a000000190000001b0000001a000000
    m_SmoothingGroup: 0
    m_Uv:
      m_UseWorldSpace: 0
      m_FlipU: 0
      m_FlipV: 0
      m_SwapUV: 0
      m_Fill: 1
      m_Scale: {x: 1, y: 1}
      m_Offset: {x: 0, y: 0}
      m_Rotation: 0
      m_Anchor: 9
    m_Material: {fileID: 0}
    m_SubmeshIndex: 0
    m_ManualUV: 0
    elementGroup: -1
    m_TextureGroup: -1
  - m_Indexes: 1c0000001d0000001e0000001d0000001f0000001e000000
    m_SmoothingGroup: 0
    m_Uv:
      m_UseWorldSpace: 0
      m_FlipU: 0
      m_FlipV: 0
      m_SwapUV: 0
      m_Fill: 1
      m_Scale: {x: 1, y: 1}
      m_Offset: {x: 0, y: 0}
      m_Rotation: 0
      m_Anchor: 9
    m_Material: {fileID: 0}
    m_SubmeshIndex: 0
    m_ManualUV: 0
    elementGroup: -1
    m_TextureGroup: -1
  - m_Indexes: 200000002100000022000000210000002300000022000000
    m_SmoothingGroup: 0
    m_Uv:
      m_UseWorldSpace: 0
      m_FlipU: 0
      m_FlipV: 0
      m_SwapUV: 0
      m_Fill: 1
      m_Scale: {x: 1, y: 1}
      m_Offset: {x: 0, y: 0}
      m_Rotation: 0
      m_Anchor: 9
    m_Material: {fileID: 0}
    m_SubmeshIndex: 0
    m_ManualUV: 0
    elementGroup: -1
    m_TextureGroup: -1
  - m_Indexes: 240000002500000026000000250000002700000026000000
    m_SmoothingGroup: 0
    m_Uv:
      m_UseWorldSpace: 0
      m_FlipU: 0
      m_FlipV: 0
      m_SwapUV: 0
      m_Fill: 1
      m_Scale: {x: 1, y: 1}
      m_Offset: {x: 0, y: 0}
      m_Rotation: 0
      m_Anchor: 9
    m_Material: {fileID: 0}
    m_SubmeshIndex: 0
    m_ManualUV: 0
    elementGroup: -1
    m_TextureGroup: -1
  - m_Indexes: 28000000290000002a000000290000002b0000002a000000
    m_SmoothingGroup: 0
    m_Uv:
      m_UseWorldSpace: 0
      m_FlipU: 0
      m_FlipV: 0
      m_SwapUV: 0
      m_Fill: 1
      m_Scale: {x: 1, y: 1}
      m_Offset: {x: 0, y: 0}
      m_Rotation: 0
      m_Anchor: 9
    m_Material: {fileID: 0}
    m_SubmeshIndex: 0
    m_ManualUV: 0
    elementGroup: -1
    m_TextureGroup: -1
  - m_Indexes: 2c0000002d0000002e0000002d0000002f0000002e000000
    m_SmoothingGroup: 0
    m_Uv:
      m_UseWorldSpace: 0
      m_FlipU: 0
      m_FlipV: 0
      m_SwapUV: 0
      m_Fill: 1
      m_Scale: {x: 1, y: 1}
      m_Offset: {x: 0, y: 0}
      m_Rotation: 0
      m_Anchor: 9
    m_Material: {fileID: 0}
    m_SubmeshIndex: 0
    m_ManualUV: 0
    elementGroup: -1
    m_TextureGroup: -1
  - m_Indexes: 300000003100000032000000310000003300000032000000
    m_SmoothingGroup: 0
    m_Uv:
      m_UseWorldSpace: 0
      m_FlipU: 0
      m_FlipV: 0
      m_SwapUV: 0
      m_Fill: 1
      m_Scale: {x: 1, y: 1}
      m_Offset: {x: 0, y: 0}
      m_Rotation: 0
      m_Anchor: 9
    m_Material: {fileID: 0}
    m_SubmeshIndex: 0
    m_ManualUV: 0
    elementGroup: -1
    m_TextureGroup: -1
  - m_Indexes: 340000003500000036000000350000003700000036000000
    m_SmoothingGroup: 0
    m_Uv:
      m_UseWorldSpace: 0
      m_FlipU: 0
      m_FlipV: 0
      m_SwapUV: 0
      m_Fill: 1
      m_Scale: {x: 1, y: 1}
      m_Offset: {x: 0, y: 0}
      m_Rotation: 0
      m_Anchor: 9
    m_Material: {fileID: 0}
    m_SubmeshIndex: 0
    m_ManualUV: 0
    elementGroup: -1
    m_TextureGroup: -1
  - m_Indexes: 38000000390000003a000000390000003b0000003a000000
    m_SmoothingGroup: 0
    m_Uv:
      m_UseWorldSpace: 0
      m_FlipU: 0
      m_FlipV: 0
      m_SwapUV: 0
      m_Fill: 1
      m_Scale: {x: 1, y: 1}
      m_Offset: {x: 0, y: 0}
      m_Rotation: 0
      m_Anchor: 9
    m_Material: {fileID: 0}
    m_SubmeshIndex: 0
    m_ManualUV: 0
    elementGroup: -1
    m_TextureGroup: -1
  - m_Indexes: 3c0000003d0000003e0000003d0000003f0000003e000000
    m_SmoothingGroup: 0
    m_Uv:
      m_UseWorldSpace: 0
      m_FlipU: 0
      m_FlipV: 0
      m_SwapUV: 0
      m_Fill: 1
      m_Scale: {x: 1, y: 1}
      m_Offset: {x: 0, y: 0}
      m_Rotation: 0
      m_Anchor: 9
    m_Material: {fileID: 0}
    m_SubmeshIndex: 0
    m_ManualUV: 0
    elementGroup: -1
    m_TextureGroup: -1
  - m_Indexes: 400000004100000042000000410000004300000042000000
    m_SmoothingGroup: 0
    m_Uv:
      m_UseWorldSpace: 0
      m_FlipU: 0
      m_FlipV: 0
      m_SwapUV: 0
      m_Fill: 1
      m_Scale: {x: 1, y: 1}
      m_Offset: {x: 0, y: 0}
      m_Rotation: 0
      m_Anchor: 9
    m_Material: {fileID: 0}
    m_SubmeshIndex: 0
    m_ManualUV: 0
    elementGroup: -1
    m_TextureGroup: -1
  - m_Indexes: 440000004500000046000000450000004700000046000000
    m_SmoothingGroup: 0
    m_Uv:
      m_UseWorldSpace: 0
      m_FlipU: 0
      m_FlipV: 0
      m_SwapUV: 0
      m_Fill: 1
      m_Scale: {x: 1, y: 1}
      m_Offset: {x: 0, y: 0}
      m_Rotation: 0
      m_Anchor: 9
    m_Material: {fileID: 0}
    m_SubmeshIndex: 0
    m_ManualUV: 0
    elementGroup: -1
    m_TextureGroup: -1
  - m_Indexes: 48000000490000004a000000490000004b0000004a000000
    m_SmoothingGroup: 0
    m_Uv:
      m_UseWorldSpace: 0
      m_FlipU: 0
      m_FlipV: 0
      m_SwapUV: 0
      m_Fill: 1
      m_Scale: {x: 1, y: 1}
      m_Offset: {x: 0, y: 0}
      m_Rotation: 0
      m_Anchor: 9
    m_Material: {fileID: 0}
    m_SubmeshIndex: 0
    m_ManualUV: 0
    elementGroup: -1
    m_TextureGroup: -1
  - m_Indexes: 4c0000004d0000004e0000004d0000004f0000004e000000
    m_SmoothingGroup: 0
    m_Uv:
      m_UseWorldSpace: 0
      m_FlipU: 0
      m_FlipV: 0
      m_SwapUV: 0
      m_Fill: 1
      m_Scale: {x: 1, y: 1}
      m_Offset: {x: 0, y: 0}
      m_Rotation: 0
      m_Anchor: 9
    m_Material: {fileID: 0}
    m_SubmeshIndex: 0
    m_ManualUV: 0
    elementGroup: -1
    m_TextureGroup: -1
  - m_Indexes: 500000005100000052000000510000005300000052000000
    m_SmoothingGroup: 0
    m_Uv:
      m_UseWorldSpace: 0
      m_FlipU: 0
      m_FlipV: 0
      m_SwapUV: 0
      m_Fill: 1
      m_Scale: {x: 1, y: 1}
      m_Offset: {x: 0, y: 0}
      m_Rotation: 0
      m_Anchor: 9
    m_Material: {fileID: 0}
    m_SubmeshIndex: 0
    m_ManualUV: 0
    elementGroup: -1
    m_TextureGroup: -1
  - m_Indexes: 540000005500000056000000550000005700000056000000
    m_SmoothingGroup: 0
    m_Uv:
      m_UseWorldSpace: 0
      m_FlipU: 0
      m_FlipV: 0
      m_SwapUV: 0
      m_Fill: 1
      m_Scale: {x: 1, y: 1}
      m_Offset: {x: 0, y: 0}
      m_Rotation: 0
      m_Anchor: 9
    m_Material: {fileID: 0}
    m_SubmeshIndex: 0
    m_ManualUV: 0
    elementGroup: -1
    m_TextureGroup: -1
  - m_Indexes: 58000000590000005a000000590000005b0000005a000000
    m_SmoothingGroup: 0
    m_Uv:
      m_UseWorldSpace: 0
      m_FlipU: 0
      m_FlipV: 0
      m_SwapUV: 0
      m_Fill: 1
      m_Scale: {x: 1, y: 1}
      m_Offset: {x: 0, y: 0}
      m_Rotation: 0
      m_Anchor: 9
    m_Material: {fileID: 0}
    m_SubmeshIndex: 0
    m_ManualUV: 0
    elementGroup: -1
    m_TextureGroup: -1
  - m_Indexes: 5c0000005d0000005e0000005d0000005f0000005e000000
    m_SmoothingGroup: 0
    m_Uv:
      m_UseWorldSpace: 0
      m_FlipU: 0
      m_FlipV: 0
      m_SwapUV: 0
      m_Fill: 1
      m_Scale: {x: 1, y: 1}
      m_Offset: {x: 0, y: 0}
      m_Rotation: 0
      m_Anchor: 9
    m_Material: {fileID: 0}
    m_SubmeshIndex: 0
    m_ManualUV: 0
    elementGroup: -1
    m_TextureGroup: -1
  - m_Indexes: 600000006100000062000000610000006300000062000000
    m_SmoothingGroup: 0
    m_Uv:
      m_UseWorldSpace: 0
      m_FlipU: 0
      m_FlipV: 0
      m_SwapUV: 0
      m_Fill: 1
      m_Scale: {x: 1, y: 1}
      m_Offset: {x: 0, y: 0}
      m_Rotation: 0
      m_Anchor: 9
    m_Material: {fileID: 0}
    m_SubmeshIndex: 0
    m_ManualUV: 0
    elementGroup: -1
    m_TextureGroup: -1
  - m_Indexes: 640000006500000066000000650000006700000066000000
    m_SmoothingGroup: 0
    m_Uv:
      m_UseWorldSpace: 0
      m_FlipU: 0
      m_FlipV: 0
      m_SwapUV: 0
      m_Fill: 1
      m_Scale: {x: 1, y: 1}
      m_Offset: {x: 0, y: 0}
      m_Rotation: 0
      m_Anchor: 9
    m_Material: {fileID: 0}
    m_SubmeshIndex: 0
    m_ManualUV: 0
    elementGroup: -1
    m_TextureGroup: -1
  - m_Indexes: 68000000690000006a000000690000006b0000006a000000
    m_SmoothingGroup: 0
    m_Uv:
      m_UseWorldSpace: 0
      m_FlipU: 0
      m_FlipV: 0
      m_SwapUV: 0
      m_Fill: 1
      m_Scale: {x: 1, y: 1}
      m_Offset: {x: 0, y: 0}
      m_Rotation: 0
      m_Anchor: 9
    m_Material: {fileID: 0}
    m_SubmeshIndex: 0
    m_ManualUV: 0
    elementGroup: -1
    m_TextureGroup: -1
  - m_Indexes: 6c0000006d0000006e0000006d0000006f0000006e000000
    m_SmoothingGroup: 0
    m_Uv:
      m_UseWorldSpace: 0
      m_FlipU: 0
      m_FlipV: 0
      m_SwapUV: 0
      m_Fill: 1
      m_Scale: {x: 1, y: 1}
      m_Offset: {x: 0, y: 0}
      m_Rotation: 0
      m_Anchor: 9
    m_Material: {fileID: 0}
    m_SubmeshIndex: 0
    m_ManualUV: 0
    elementGroup: -1
    m_TextureGroup: -1
  - m_Indexes: 700000007100000072000000710000007300000072000000
    m_SmoothingGroup: 0
    m_Uv:
      m_UseWorldSpace: 0
      m_FlipU: 0
      m_FlipV: 0
      m_SwapUV: 0
      m_Fill: 1
      m_Scale: {x: 1, y: 1}
      m_Offset: {x: 0, y: 0}
      m_Rotation: 0
      m_Anchor: 9
    m_Material: {fileID: 0}
    m_SubmeshIndex: 0
    m_ManualUV: 0
    elementGroup: -1
    m_TextureGroup: -1
  - m_Indexes: 740000007500000076000000750000007700000076000000
    m_SmoothingGroup: 0
    m_Uv:
      m_UseWorldSpace: 0
      m_FlipU: 0
      m_FlipV: 0
      m_SwapUV: 0
      m_Fill: 1
      m_Scale: {x: 1, y: 1}
      m_Offset: {x: 0, y: 0}
      m_Rotation: 0
      m_Anchor: 9
    m_Material: {fileID: 0}
    m_SubmeshIndex: 0
    m_ManualUV: 0
    elementGroup: -1
    m_TextureGroup: -1
  - m_Indexes: 78000000790000007a000000790000007b0000007a000000
    m_SmoothingGroup: 0
    m_Uv:
      m_UseWorldSpace: 0
      m_FlipU: 0
      m_FlipV: 0
      m_SwapUV: 0
      m_Fill: 1
      m_Scale: {x: 1, y: 1}
      m_Offset: {x: 0, y: 0}
      m_Rotation: 0
      m_Anchor: 9
    m_Material: {fileID: 0}
    m_SubmeshIndex: 0
    m_ManualUV: 0
    elementGroup: -1
    m_TextureGroup: -1
  - m_Indexes: 7c0000007d0000007e0000007d0000007f0000007e000000
    m_SmoothingGroup: 0
    m_Uv:
      m_UseWorldSpace: 0
      m_FlipU: 0
      m_FlipV: 0
      m_SwapUV: 0
      m_Fill: 1
      m_Scale: {x: 1, y: 1}
      m_Offset: {x: 0, y: 0}
      m_Rotation: 0
      m_Anchor: 9
    m_Material: {fileID: 0}
    m_SubmeshIndex: 0
    m_ManualUV: 0
    elementGroup: -1
    m_TextureGroup: -1
  - m_Indexes: 800000008100000082000000810000008300000082000000
    m_SmoothingGroup: 0
    m_Uv:
      m_UseWorldSpace: 0
      m_FlipU: 0
      m_FlipV: 0
      m_SwapUV: 0
      m_Fill: 1
      m_Scale: {x: 1, y: 1}
      m_Offset: {x: 0, y: 0}
      m_Rotation: 0
      m_Anchor: 9
    m_Material: {fileID: 0}
    m_SubmeshIndex: 0
    m_ManualUV: 0
    elementGroup: -1
    m_TextureGroup: -1
  - m_Indexes: 840000008500000086000000850000008700000086000000
    m_SmoothingGroup: 0
    m_Uv:
      m_UseWorldSpace: 0
      m_FlipU: 0
      m_FlipV: 0
      m_SwapUV: 0
      m_Fill: 1
      m_Scale: {x: 1, y: 1}
      m_Offset: {x: 0, y: 0}
      m_Rotation: 0
      m_Anchor: 9
    m_Material: {fileID: 0}
    m_SubmeshIndex: 0
    m_ManualUV: 0
    elementGroup: -1
    m_TextureGroup: -1
  - m_Indexes: 88000000890000008a000000890000008b0000008a000000
    m_SmoothingGroup: 0
    m_Uv:
      m_UseWorldSpace: 0
      m_FlipU: 0
      m_FlipV: 0
      m_SwapUV: 0
      m_Fill: 1
      m_Scale: {x: 1, y: 1}
      m_Offset: {x: 0, y: 0}
      m_Rotation: 0
      m_Anchor: 9
    m_Material: {fileID: 0}
    m_SubmeshIndex: 0
    m_ManualUV: 0
    elementGroup: -1
    m_TextureGroup: -1
  - m_Indexes: 8c0000008d0000008e0000008d0000008f0000008e000000
    m_SmoothingGroup: 0
    m_Uv:
      m_UseWorldSpace: 0
      m_FlipU: 0
      m_FlipV: 0
      m_SwapUV: 0
      m_Fill: 1
      m_Scale: {x: 1, y: 1}
      m_Offset: {x: 0, y: 0}
      m_Rotation: 0
      m_Anchor: 9
    m_Material: {fileID: 0}
    m_SubmeshIndex: 0
    m_ManualUV: 0
    elementGroup: -1
    m_TextureGroup: -1
  - m_Indexes: 900000009100000092000000910000009300000092000000
    m_SmoothingGroup: 0
    m_Uv:
      m_UseWorldSpace: 0
      m_FlipU: 0
      m_FlipV: 0
      m_SwapUV: 0
      m_Fill: 1
      m_Scale: {x: 1, y: 1}
      m_Offset: {x: 0, y: 0}
      m_Rotation: 0
      m_Anchor: 9
    m_Material: {fileID: 0}
    m_SubmeshIndex: 0
    m_ManualUV: 0
    elementGroup: -1
    m_TextureGroup: -1
  - m_Indexes: 940000009500000096000000950000009700000096000000
    m_SmoothingGroup: 0
    m_Uv:
      m_UseWorldSpace: 0
      m_FlipU: 0
      m_FlipV: 0
      m_SwapUV: 0
      m_Fill: 1
      m_Scale: {x: 1, y: 1}
      m_Offset: {x: 0, y: 0}
      m_Rotation: 0
      m_Anchor: 9
    m_Material: {fileID: 0}
    m_SubmeshIndex: 0
    m_ManualUV: 0
    elementGroup: -1
    m_TextureGroup: -1
  - m_Indexes: 98000000990000009a000000990000009b0000009a000000
    m_SmoothingGroup: 0
    m_Uv:
      m_UseWorldSpace: 0
      m_FlipU: 0
      m_FlipV: 0
      m_SwapUV: 0
      m_Fill: 1
      m_Scale: {x: 1, y: 1}
      m_Offset: {x: 0, y: 0}
      m_Rotation: 0
      m_Anchor: 9
    m_Material: {fileID: 0}
    m_SubmeshIndex: 0
    m_ManualUV: 0
    elementGroup: -1
    m_TextureGroup: -1
  - m_Indexes: 9c0000009d0000009e0000009d0000009f0000009e000000
    m_SmoothingGroup: 0
    m_Uv:
      m_UseWorldSpace: 0
      m_FlipU: 0
      m_FlipV: 0
      m_SwapUV: 0
      m_Fill: 1
      m_Scale: {x: 1, y: 1}
      m_Offset: {x: 0, y: 0}
      m_Rotation: 0
      m_Anchor: 9
    m_Material: {fileID: 0}
    m_SubmeshIndex: 0
    m_ManualUV: 0
    elementGroup: -1
    m_TextureGroup: -1
  - m_Indexes: a0000000a1000000a2000000a1000000a3000000a2000000
    m_SmoothingGroup: 0
    m_Uv:
      m_UseWorldSpace: 0
      m_FlipU: 0
      m_FlipV: 0
      m_SwapUV: 0
      m_Fill: 1
      m_Scale: {x: 1, y: 1}
      m_Offset: {x: 0, y: 0}
      m_Rotation: 0
      m_Anchor: 9
    m_Material: {fileID: 0}
    m_SubmeshIndex: 0
    m_ManualUV: 0
    elementGroup: -1
    m_TextureGroup: -1
  - m_Indexes: a4000000a5000000a6000000a5000000a7000000a6000000
    m_SmoothingGroup: 0
    m_Uv:
      m_UseWorldSpace: 0
      m_FlipU: 0
      m_FlipV: 0
      m_SwapUV: 0
      m_Fill: 1
      m_Scale: {x: 1, y: 1}
      m_Offset: {x: 0, y: 0}
      m_Rotation: 0
      m_Anchor: 9
    m_Material: {fileID: 0}
    m_SubmeshIndex: 0
    m_ManualUV: 0
    elementGroup: -1
    m_TextureGroup: -1
  - m_Indexes: a8000000a9000000aa000000a9000000ab000000aa000000
    m_SmoothingGroup: 0
    m_Uv:
      m_UseWorldSpace: 0
      m_FlipU: 0
      m_FlipV: 0
      m_SwapUV: 0
      m_Fill: 1
      m_Scale: {x: 1, y: 1}
      m_Offset: {x: 0, y: 0}
      m_Rotation: 0
      m_Anchor: 9
    m_Material: {fileID: 0}
    m_SubmeshIndex: 0
    m_ManualUV: 0
    elementGroup: -1
    m_TextureGroup: -1
  - m_Indexes: ac000000ad000000ae000000ad000000af000000ae000000
    m_SmoothingGroup: 0
    m_Uv:
      m_UseWorldSpace: 0
      m_FlipU: 0
      m_FlipV: 0
      m_SwapUV: 0
      m_Fill: 1
      m_Scale: {x: 1, y: 1}
      m_Offset: {x: 0, y: 0}
      m_Rotation: 0
      m_Anchor: 9
    m_Material: {fileID: 0}
    m_SubmeshIndex: 0
    m_ManualUV: 0
    elementGroup: -1
    m_TextureGroup: -1
  - m_Indexes: b0000000b1000000b2000000b1000000b3000000b2000000
    m_SmoothingGroup: 0
    m_Uv:
      m_UseWorldSpace: 0
      m_FlipU: 0
      m_FlipV: 0
      m_SwapUV: 0
      m_Fill: 1
      m_Scale: {x: 1, y: 1}
      m_Offset: {x: 0, y: 0}
      m_Rotation: 0
      m_Anchor: 9
    m_Material: {fileID: 0}
    m_SubmeshIndex: 0
    m_ManualUV: 0
    elementGroup: -1
    m_TextureGroup: -1
  - m_Indexes: b4000000b5000000b6000000b5000000b7000000b6000000
    m_SmoothingGroup: 0
    m_Uv:
      m_UseWorldSpace: 0
      m_FlipU: 0
      m_FlipV: 0
      m_SwapUV: 0
      m_Fill: 1
      m_Scale: {x: 1, y: 1}
      m_Offset: {x: 0, y: 0}
      m_Rotation: 0
      m_Anchor: 9
    m_Material: {fileID: 0}
    m_SubmeshIndex: 0
    m_ManualUV: 0
    elementGroup: -1
    m_TextureGroup: -1
  - m_Indexes: b8000000b9000000ba000000b9000000bb000000ba000000
    m_SmoothingGroup: 0
    m_Uv:
      m_UseWorldSpace: 0
      m_FlipU: 0
      m_FlipV: 0
      m_SwapUV: 0
      m_Fill: 1
      m_Scale: {x: 1, y: 1}
      m_Offset: {x: 0, y: 0}
      m_Rotation: 0
      m_Anchor: 9
    m_Material: {fileID: 0}
    m_SubmeshIndex: 0
    m_ManualUV: 0
    elementGroup: -1
    m_TextureGroup: -1
  - m_Indexes: bc000000bd000000be000000bd000000bf000000be000000
    m_SmoothingGroup: 0
    m_Uv:
      m_UseWorldSpace: 0
      m_FlipU: 0
      m_FlipV: 0
      m_SwapUV: 0
      m_Fill: 1
      m_Scale: {x: 1, y: 1}
      m_Offset: {x: 0, y: 0}
      m_Rotation: 0
      m_Anchor: 9
    m_Material: {fileID: 0}
    m_SubmeshIndex: 0
    m_ManualUV: 0
    elementGroup: -1
    m_TextureGroup: -1
  - m_Indexes: c0000000c1000000c2000000c1000000c3000000c2000000
    m_SmoothingGroup: 0
    m_Uv:
      m_UseWorldSpace: 0
      m_FlipU: 0
      m_FlipV: 0
      m_SwapUV: 0
      m_Fill: 1
      m_Scale: {x: 1, y: 1}
      m_Offset: {x: 0, y: 0}
      m_Rotation: 0
      m_Anchor: 9
    m_Material: {fileID: 0}
    m_SubmeshIndex: 0
    m_ManualUV: 0
    elementGroup: -1
    m_TextureGroup: -1
  - m_Indexes: c4000000c5000000c6000000c5000000c7000000c6000000
    m_SmoothingGroup: 0
    m_Uv:
      m_UseWorldSpace: 0
      m_FlipU: 0
      m_FlipV: 0
      m_SwapUV: 0
      m_Fill: 1
      m_Scale: {x: 1, y: 1}
      m_Offset: {x: 0, y: 0}
      m_Rotation: 0
      m_Anchor: 9
    m_Material: {fileID: 0}
    m_SubmeshIndex: 0
    m_ManualUV: 0
    elementGroup: -1
    m_TextureGroup: -1
  - m_Indexes: c8000000c9000000ca000000c9000000cb000000ca000000
    m_SmoothingGroup: 0
    m_Uv:
      m_UseWorldSpace: 0
      m_FlipU: 0
      m_FlipV: 0
      m_SwapUV: 0
      m_Fill: 1
      m_Scale: {x: 1, y: 1}
      m_Offset: {x: 0, y: 0}
      m_Rotation: 0
      m_Anchor: 9
    m_Material: {fileID: 0}
    m_SubmeshIndex: 0
    m_ManualUV: 0
    elementGroup: -1
    m_TextureGroup: -1
  - m_Indexes: cc000000cd000000ce000000cd000000cf000000ce000000
    m_SmoothingGroup: 0
    m_Uv:
      m_UseWorldSpace: 0
      m_FlipU: 0
      m_FlipV: 0
      m_SwapUV: 0
      m_Fill: 1
      m_Scale: {x: 1, y: 1}
      m_Offset: {x: 0, y: 0}
      m_Rotation: 0
      m_Anchor: 9
    m_Material: {fileID: 0}
    m_SubmeshIndex: 0
    m_ManualUV: 0
    elementGroup: -1
    m_TextureGroup: -1
  - m_Indexes: d0000000d1000000d2000000d1000000d3000000d2000000
    m_SmoothingGroup: 0
    m_Uv:
      m_UseWorldSpace: 0
      m_FlipU: 0
      m_FlipV: 0
      m_SwapUV: 0
      m_Fill: 1
      m_Scale: {x: 1, y: 1}
      m_Offset: {x: 0, y: 0}
      m_Rotation: 0
      m_Anchor: 9
    m_Material: {fileID: 0}
    m_SubmeshIndex: 0
    m_ManualUV: 0
    elementGroup: -1
    m_TextureGroup: -1
  - m_Indexes: d4000000d5000000d6000000d5000000d7000000d6000000
    m_SmoothingGroup: 0
    m_Uv:
      m_UseWorldSpace: 0
      m_FlipU: 0
      m_FlipV: 0
      m_SwapUV: 0
      m_Fill: 1
      m_Scale: {x: 1, y: 1}
      m_Offset: {x: 0, y: 0}
      m_Rotation: 0
      m_Anchor: 9
    m_Material: {fileID: 0}
    m_SubmeshIndex: 0
    m_ManualUV: 0
    elementGroup: -1
    m_TextureGroup: -1
  - m_Indexes: d8000000d9000000da000000d9000000db000000da000000
    m_SmoothingGroup: 0
    m_Uv:
      m_UseWorldSpace: 0
      m_FlipU: 0
      m_FlipV: 0
      m_SwapUV: 0
      m_Fill: 1
      m_Scale: {x: 1, y: 1}
      m_Offset: {x: 0, y: 0}
      m_Rotation: 0
      m_Anchor: 9
    m_Material: {fileID: 0}
    m_SubmeshIndex: 0
    m_ManualUV: 0
    elementGroup: -1
    m_TextureGroup: -1
  - m_Indexes: dc000000dd000000de000000dd000000df000000de000000
    m_SmoothingGroup: 0
    m_Uv:
      m_UseWorldSpace: 0
      m_FlipU: 0
      m_FlipV: 0
      m_SwapUV: 0
      m_Fill: 1
      m_Scale: {x: 1, y: 1}
      m_Offset: {x: 0, y: 0}
      m_Rotation: 0
      m_Anchor: 9
    m_Material: {fileID: 0}
    m_SubmeshIndex: 0
    m_ManualUV: 0
    elementGroup: -1
    m_TextureGroup: -1
  - m_Indexes: e0000000e1000000e2000000e1000000e3000000e2000000
    m_SmoothingGroup: 0
    m_Uv:
      m_UseWorldSpace: 0
      m_FlipU: 0
      m_FlipV: 0
      m_SwapUV: 0
      m_Fill: 1
      m_Scale: {x: 1, y: 1}
      m_Offset: {x: 0, y: 0}
      m_Rotation: 0
      m_Anchor: 9
    m_Material: {fileID: 0}
    m_SubmeshIndex: 0
    m_ManualUV: 0
    elementGroup: -1
    m_TextureGroup: -1
  - m_Indexes: e4000000e5000000e6000000e5000000e7000000e6000000
    m_SmoothingGroup: 0
    m_Uv:
      m_UseWorldSpace: 0
      m_FlipU: 0
      m_FlipV: 0
      m_SwapUV: 0
      m_Fill: 1
      m_Scale: {x: 1, y: 1}
      m_Offset: {x: 0, y: 0}
      m_Rotation: 0
      m_Anchor: 9
    m_Material: {fileID: 0}
    m_SubmeshIndex: 0
    m_ManualUV: 0
    elementGroup: -1
    m_TextureGroup: -1
  - m_Indexes: e8000000e9000000ea000000e9000000eb000000ea000000
    m_SmoothingGroup: 0
    m_Uv:
      m_UseWorldSpace: 0
      m_FlipU: 0
      m_FlipV: 0
      m_SwapUV: 0
      m_Fill: 1
      m_Scale: {x: 1, y: 1}
      m_Offset: {x: 0, y: 0}
      m_Rotation: 0
      m_Anchor: 9
    m_Material: {fileID: 0}
    m_SubmeshIndex: 0
    m_ManualUV: 0
    elementGroup: -1
    m_TextureGroup: -1
  - m_Indexes: ec000000ed000000ee000000ed000000ef000000ee000000
    m_SmoothingGroup: 0
    m_Uv:
      m_UseWorldSpace: 0
      m_FlipU: 0
      m_FlipV: 0
      m_SwapUV: 0
      m_Fill: 1
      m_Scale: {x: 1, y: 1}
      m_Offset: {x: 0, y: 0}
      m_Rotation: 0
      m_Anchor: 9
    m_Material: {fileID: 0}
    m_SubmeshIndex: 0
    m_ManualUV: 0
    elementGroup: -1
    m_TextureGroup: -1
  - m_Indexes: f0000000f1000000f2000000f1000000f3000000f2000000
    m_SmoothingGroup: 0
    m_Uv:
      m_UseWorldSpace: 0
      m_FlipU: 0
      m_FlipV: 0
      m_SwapUV: 0
      m_Fill: 1
      m_Scale: {x: 1, y: 1}
      m_Offset: {x: 0, y: 0}
      m_Rotation: 0
      m_Anchor: 9
    m_Material: {fileID: 0}
    m_SubmeshIndex: 0
    m_ManualUV: 0
    elementGroup: -1
    m_TextureGroup: -1
  - m_Indexes: f4000000f5000000f6000000f5000000f7000000f6000000
    m_SmoothingGroup: 0
    m_Uv:
      m_UseWorldSpace: 0
      m_FlipU: 0
      m_FlipV: 0
      m_SwapUV: 0
      m_Fill: 1
      m_Scale: {x: 1, y: 1}
      m_Offset: {x: 0, y: 0}
      m_Rotation: 0
      m_Anchor: 9
    m_Material: {fileID: 0}
    m_SubmeshIndex: 0
    m_ManualUV: 0
    elementGroup: -1
    m_TextureGroup: -1
  - m_Indexes: f8000000f9000000fa000000f9000000fb000000fa000000
    m_SmoothingGroup: 0
    m_Uv:
      m_UseWorldSpace: 0
      m_FlipU: 0
      m_FlipV: 0
      m_SwapUV: 0
      m_Fill: 1
      m_Scale: {x: 1, y: 1}
      m_Offset: {x: 0, y: 0}
      m_Rotation: 0
      m_Anchor: 9
    m_Material: {fileID: 0}
    m_SubmeshIndex: 0
    m_ManualUV: 0
    elementGroup: -1
    m_TextureGroup: -1
  - m_Indexes: fc000000fd000000fe000000fd000000ff000000fe000000
    m_SmoothingGroup: 0
    m_Uv:
      m_UseWorldSpace: 0
      m_FlipU: 0
      m_FlipV: 0
      m_SwapUV: 0
      m_Fill: 1
      m_Scale: {x: 1, y: 1}
      m_Offset: {x: 0, y: 0}
      m_Rotation: 0
      m_Anchor: 9
    m_Material: {fileID: 0}
    m_SubmeshIndex: 0
    m_ManualUV: 0
    elementGroup: -1
    m_TextureGroup: -1
  - m_Indexes: 000100000101000002010000010100000301000002010000
    m_SmoothingGroup: 0
    m_Uv:
      m_UseWorldSpace: 0
      m_FlipU: 0
      m_FlipV: 0
      m_SwapUV: 0
      m_Fill: 1
      m_Scale: {x: 1, y: 1}
      m_Offset: {x: 0, y: 0}
      m_Rotation: 0
      m_Anchor: 9
    m_Material: {fileID: 0}
    m_SubmeshIndex: 0
    m_ManualUV: 0
    elementGroup: -1
    m_TextureGroup: -1
  - m_Indexes: 040100000501000006010000050100000701000006010000
    m_SmoothingGroup: 0
    m_Uv:
      m_UseWorldSpace: 0
      m_FlipU: 0
      m_FlipV: 0
      m_SwapUV: 0
      m_Fill: 1
      m_Scale: {x: 1, y: 1}
      m_Offset: {x: 0, y: 0}
      m_Rotation: 0
      m_Anchor: 9
    m_Material: {fileID: 0}
    m_SubmeshIndex: 0
    m_ManualUV: 0
    elementGroup: -1
    m_TextureGroup: -1
  - m_Indexes: 08010000090100000a010000090100000b0100000a010000
    m_SmoothingGroup: 0
    m_Uv:
      m_UseWorldSpace: 0
      m_FlipU: 0
      m_FlipV: 0
      m_SwapUV: 0
      m_Fill: 1
      m_Scale: {x: 1, y: 1}
      m_Offset: {x: 0, y: 0}
      m_Rotation: 0
      m_Anchor: 9
    m_Material: {fileID: 0}
    m_SubmeshIndex: 0
    m_ManualUV: 0
    elementGroup: -1
    m_TextureGroup: -1
  - m_Indexes: 0c0100000d0100000e0100000d0100000f0100000e010000
    m_SmoothingGroup: 0
    m_Uv:
      m_UseWorldSpace: 0
      m_FlipU: 0
      m_FlipV: 0
      m_SwapUV: 0
      m_Fill: 1
      m_Scale: {x: 1, y: 1}
      m_Offset: {x: 0, y: 0}
      m_Rotation: 0
      m_Anchor: 9
    m_Material: {fileID: 0}
    m_SubmeshIndex: 0
    m_ManualUV: 0
    elementGroup: -1
    m_TextureGroup: -1
  - m_Indexes: 100100001101000012010000110100001301000012010000
    m_SmoothingGroup: 0
    m_Uv:
      m_UseWorldSpace: 0
      m_FlipU: 0
      m_FlipV: 0
      m_SwapUV: 0
      m_Fill: 1
      m_Scale: {x: 1, y: 1}
      m_Offset: {x: 0, y: 0}
      m_Rotation: 0
      m_Anchor: 9
    m_Material: {fileID: 0}
    m_SubmeshIndex: 0
    m_ManualUV: 0
    elementGroup: -1
    m_TextureGroup: -1
  - m_Indexes: 140100001501000016010000150100001701000016010000
    m_SmoothingGroup: 0
    m_Uv:
      m_UseWorldSpace: 0
      m_FlipU: 0
      m_FlipV: 0
      m_SwapUV: 0
      m_Fill: 1
      m_Scale: {x: 1, y: 1}
      m_Offset: {x: 0, y: 0}
      m_Rotation: 0
      m_Anchor: 9
    m_Material: {fileID: 0}
    m_SubmeshIndex: 0
    m_ManualUV: 0
    elementGroup: -1
    m_TextureGroup: -1
  - m_Indexes: 18010000190100001a010000190100001b0100001a010000
    m_SmoothingGroup: 0
    m_Uv:
      m_UseWorldSpace: 0
      m_FlipU: 0
      m_FlipV: 0
      m_SwapUV: 0
      m_Fill: 1
      m_Scale: {x: 1, y: 1}
      m_Offset: {x: 0, y: 0}
      m_Rotation: 0
      m_Anchor: 9
    m_Material: {fileID: 0}
    m_SubmeshIndex: 0
    m_ManualUV: 0
    elementGroup: -1
    m_TextureGroup: -1
  - m_Indexes: 1c0100001d0100001e0100001d0100001f0100001e010000
    m_SmoothingGroup: 0
    m_Uv:
      m_UseWorldSpace: 0
      m_FlipU: 0
      m_FlipV: 0
      m_SwapUV: 0
      m_Fill: 1
      m_Scale: {x: 1, y: 1}
      m_Offset: {x: 0, y: 0}
      m_Rotation: 0
      m_Anchor: 9
    m_Material: {fileID: 0}
    m_SubmeshIndex: 0
    m_ManualUV: 0
    elementGroup: -1
    m_TextureGroup: -1
  - m_Indexes: 200100002101000022010000210100002301000022010000
    m_SmoothingGroup: 0
    m_Uv:
      m_UseWorldSpace: 0
      m_FlipU: 0
      m_FlipV: 0
      m_SwapUV: 0
      m_Fill: 1
      m_Scale: {x: 1, y: 1}
      m_Offset: {x: 0, y: 0}
      m_Rotation: 0
      m_Anchor: 9
    m_Material: {fileID: 0}
    m_SubmeshIndex: 0
    m_ManualUV: 0
    elementGroup: -1
    m_TextureGroup: -1
  - m_Indexes: 240100002501000026010000250100002701000026010000
    m_SmoothingGroup: 0
    m_Uv:
      m_UseWorldSpace: 0
      m_FlipU: 0
      m_FlipV: 0
      m_SwapUV: 0
      m_Fill: 1
      m_Scale: {x: 1, y: 1}
      m_Offset: {x: 0, y: 0}
      m_Rotation: 0
      m_Anchor: 9
    m_Material: {fileID: 0}
    m_SubmeshIndex: 0
    m_ManualUV: 0
    elementGroup: -1
    m_TextureGroup: -1
  - m_Indexes: 28010000290100002a010000290100002b0100002a010000
    m_SmoothingGroup: 0
    m_Uv:
      m_UseWorldSpace: 0
      m_FlipU: 0
      m_FlipV: 0
      m_SwapUV: 0
      m_Fill: 1
      m_Scale: {x: 1, y: 1}
      m_Offset: {x: 0, y: 0}
      m_Rotation: 0
      m_Anchor: 9
    m_Material: {fileID: 0}
    m_SubmeshIndex: 0
    m_ManualUV: 0
    elementGroup: -1
    m_TextureGroup: -1
  - m_Indexes: 2c0100002d0100002e0100002d0100002f0100002e010000
    m_SmoothingGroup: 0
    m_Uv:
      m_UseWorldSpace: 0
      m_FlipU: 0
      m_FlipV: 0
      m_SwapUV: 0
      m_Fill: 1
      m_Scale: {x: 1, y: 1}
      m_Offset: {x: 0, y: 0}
      m_Rotation: 0
      m_Anchor: 9
    m_Material: {fileID: 0}
    m_SubmeshIndex: 0
    m_ManualUV: 0
    elementGroup: -1
    m_TextureGroup: -1
  - m_Indexes: 300100003101000032010000310100003301000032010000
    m_SmoothingGroup: 0
    m_Uv:
      m_UseWorldSpace: 0
      m_FlipU: 0
      m_FlipV: 0
      m_SwapUV: 0
      m_Fill: 1
      m_Scale: {x: 1, y: 1}
      m_Offset: {x: 0, y: 0}
      m_Rotation: 0
      m_Anchor: 9
    m_Material: {fileID: 0}
    m_SubmeshIndex: 0
    m_ManualUV: 0
    elementGroup: -1
    m_TextureGroup: -1
  - m_Indexes: 340100003501000036010000350100003701000036010000
    m_SmoothingGroup: 0
    m_Uv:
      m_UseWorldSpace: 0
      m_FlipU: 0
      m_FlipV: 0
      m_SwapUV: 0
      m_Fill: 1
      m_Scale: {x: 1, y: 1}
      m_Offset: {x: 0, y: 0}
      m_Rotation: 0
      m_Anchor: 9
    m_Material: {fileID: 0}
    m_SubmeshIndex: 0
    m_ManualUV: 0
    elementGroup: -1
    m_TextureGroup: -1
  - m_Indexes: 38010000390100003a010000390100003b0100003a010000
    m_SmoothingGroup: 0
    m_Uv:
      m_UseWorldSpace: 0
      m_FlipU: 0
      m_FlipV: 0
      m_SwapUV: 0
      m_Fill: 1
      m_Scale: {x: 1, y: 1}
      m_Offset: {x: 0, y: 0}
      m_Rotation: 0
      m_Anchor: 9
    m_Material: {fileID: 0}
    m_SubmeshIndex: 0
    m_ManualUV: 0
    elementGroup: -1
    m_TextureGroup: -1
  - m_Indexes: 3c0100003d0100003e0100003d0100003f0100003e010000
    m_SmoothingGroup: 0
    m_Uv:
      m_UseWorldSpace: 0
      m_FlipU: 0
      m_FlipV: 0
      m_SwapUV: 0
      m_Fill: 1
      m_Scale: {x: 1, y: 1}
      m_Offset: {x: 0, y: 0}
      m_Rotation: 0
      m_Anchor: 9
    m_Material: {fileID: 0}
    m_SubmeshIndex: 0
    m_ManualUV: 0
    elementGroup: -1
    m_TextureGroup: -1
  m_SharedVertices:
  - m_Vertices: 0000000099000000a50000003c010000
  - m_Vertices: 0100000008000000a4000000ad000000
  - m_Vertices: 020000009b000000a000000039010000
  - m_Vertices: 030000000a000000a1000000a8000000
  - m_Vertices: 040000000d000000a6000000af000000
  - m_Vertices: 050000009c000000a70000003e010000
  - m_Vertices: 060000000f000000a3000000aa000000
  - m_Vertices: 070000009e000000a20000003b010000
  - m_Vertices: 0900000010000000ac000000b5000000
  - m_Vertices: 0b00000012000000a9000000b0000000
  - m_Vertices: 0c00000015000000ae000000b7000000
  - m_Vertices: 0e00000017000000ab000000b2000000
  - m_Vertices: 1100000018000000b4000000bd000000
  - m_Vertices: 130000001a000000b1000000b8000000
  - m_Vertices: 140000001d000000b6000000bf000000
  - m_Vertices: 160000001f000000b3000000ba000000
  - m_Vertices: 1900000020000000bc000000c5000000
  - m_Vertices: 1b00000022000000b9000000c0000000
  - m_Vertices: 1c00000025000000be000000c7000000
  - m_Vertices: 1e00000027000000bb000000c2000000
  - m_Vertices: 2100000028000000c4000000cd000000
  - m_Vertices: 230000002a000000c1000000c8000000
  - m_Vertices: 240000002d000000c6000000cf000000
  - m_Vertices: 260000002f000000c3000000ca000000
  - m_Vertices: 2900000030000000cc000000d5000000
  - m_Vertices: 2b00000032000000c9000000d0000000
  - m_Vertices: 2c00000035000000ce000000d7000000
  - m_Vertices: 2e00000037000000cb000000d2000000
  - m_Vertices: 3100000038000000d4000000dd000000
  - m_Vertices: 330000003a000000d1000000d8000000
  - m_Vertices: 340000003d000000d6000000df000000
  - m_Vertices: 360000003f000000d3000000da000000
  - m_Vertices: 3900000040000000dc000000e5000000
  - m_Vertices: 3b00000042000000d9000000e0000000
  - m_Vertices: 3c00000045000000de000000e7000000
  - m_Vertices: 3e00000047000000db000000e2000000
  - m_Vertices: 4100000048000000e4000000ed000000
  - m_Vertices: 430000004a000000e1000000e8000000
  - m_Vertices: 440000004d000000e6000000ef000000
  - m_Vertices: 460000004f000000e3000000ea000000
  - m_Vertices: 4900000050000000ec000000f5000000
  - m_Vertices: 4b00000052000000e9000000f0000000
  - m_Vertices: 4c00000055000000ee000000f7000000
  - m_Vertices: 4e00000057000000eb000000f2000000
  - m_Vertices: 5100000058000000f4000000fd000000
  - m_Vertices: 530000005a000000f1000000f8000000
  - m_Vertices: 540000005d000000f6000000ff000000
  - m_Vertices: 560000005f000000f3000000fa000000
  - m_Vertices: 5900000060000000fc00000005010000
  - m_Vertices: 5b00000062000000f900000000010000
  - m_Vertices: 5c00000065000000fe00000007010000
  - m_Vertices: 5e00000067000000fb00000002010000
  - m_Vertices: 6100000068000000040100000d010000
  - m_Vertices: 630000006a0000000101000008010000
  - m_Vertices: 640000006d000000060100000f010000
  - m_Vertices: 660000006f000000030100000a010000
  - m_Vertices: 69000000700000000c01000015010000
  - m_Vertices: 6b000000720000000901000010010000
  - m_Vertices: 6c000000750000000e01000017010000
  - m_Vertices: 6e000000770000000b01000012010000
  - m_Vertices: 7100000078000000140100001d010000
  - m_Vertices: 730000007a0000001101000018010000
  - m_Vertices: 740000007d000000160100001f010000
  - m_Vertices: 760000007f000000130100001a010000
  - m_Vertices: 79000000800000001c01000025010000
  - m_Vertices: 7b000000820000001901000020010000
  - m_Vertices: 7c000000850000001e01000027010000
  - m_Vertices: 7e000000870000001b01000022010000
  - m_Vertices: 8100000088000000240100002d010000
  - m_Vertices: 830000008a0000002101000028010000
  - m_Vertices: 840000008d000000260100002f010000
  - m_Vertices: 860000008f000000230100002a010000
  - m_Vertices: 89000000900000002c01000035010000
  - m_Vertices: 8b000000920000002901000030010000
  - m_Vertices: 8c000000950000002e01000037010000
  - m_Vertices: 8e000000970000002b01000032010000
  - m_Vertices: 9100000098000000340100003d010000
  - m_Vertices: 930000009a0000003101000038010000
  - m_Vertices: 940000009d000000360100003f010000
  - m_Vertices: 960000009f000000330100003a010000
  m_SharedTextures: []
  m_Positions:
  - {x: 0, y: 0, z: 0}
  - {x: -0.48943424, y: 3.09017, z: 0}
  - {x: 0, y: 0, z: 1}
  - {x: -0.48943424, y: 3.09017, z: 1}
  - {x: -0.49894524, y: 3.0870798, z: 0}
  - {x: -0.010000229, y: 0, z: 0}
  - {x: -0.49894524, y: 3.0870798, z: 1}
  - {x: -0.010000229, y: 0, z: 1}
  - {x: -0.48943424, y: 3.09017, z: 0}
  - {x: -1.9098301, y: 5.8778524, z: 0}
  - {x: -0.48943424, y: 3.09017, z: 1}
  - {x: -1.9098301, y: 5.8778524, z: 1}
  - {x: -1.9179201, y: 5.8719745, z: 0}
  - {x: -0.49894524, y: 3.0870798, z: 0}
  - {x: -1.9179201, y: 5.8719745, z: 1}
  - {x: -0.49894524, y: 3.0870798, z: 1}
  - {x: -1.9098301, y: 5.8778524, z: 0}
  - {x: -4.122147, y: 8.09017, z: 0}
  - {x: -1.9098301, y: 5.8778524, z: 1}
  - {x: -4.122147, y: 8.09017, z: 1}
  - {x: -4.128025, y: 8.08208, z: 0}
  - {x: -1.9179201, y: 5.8719745, z: 0}
  - {x: -4.128025, y: 8.08208, z: 1}
  - {x: -1.9179201, y: 5.8719745, z: 1}
  - {x: -4.122147, y: 8.09017, z: 0}
  - {x: -6.90983, y: 9.510566, z: 0}
  - {x: -4.122147, y: 8.09017, z: 1}
  - {x: -6.90983, y: 9.510566, z: 1}
  - {x: -6.9129205, y: 9.501055, z: 0}
  - {x: -4.128025, y: 8.08208, z: 0}
  - {x: -6.9129205, y: 9.501055, z: 1}
  - {x: -4.128025, y: 8.08208, z: 1}
  - {x: -6.90983, y: 9.510566, z: 0}
  - {x: -10, y: 10, z: 0}
  - {x: -6.90983, y: 9.510566, z: 1}
  - {x: -10, y: 10, z: 1}
  - {x: -10, y: 9.99, z: 0}
  - {x: -6.9129205, y: 9.501055, z: 0}
  - {x: -10, y: 9.99, z: 1}
  - {x: -6.9129205, y: 9.501055, z: 1}
  - {x: -10, y: 10, z: 0}
  - {x: -13.09017, y: 9.510566, z: 0}
  - {x: -10, y: 10, z: 1}
  - {x: -13.09017, y: 9.510566, z: 1}
  - {x: -13.087079, y: 9.501055, z: 0}
  - {x: -10, y: 9.99, z: 0}
  - {x: -13.087079, y: 9.501055, z: 1}
  - {x: -10, y: 9.99, z: 1}
  - {x: -13.09017, y: 9.510566, z: 0}
  - {x: -15.8778515, y: 8.09017, z: 0}
  - {x: -13.09017, y: 9.510566, z: 1}
  - {x: -15.8778515, y: 8.09017, z: 1}
  - {x: -15.871974, y: 8.08208, z: 0}
  - {x: -13.087079, y: 9.501055, z: 0}
  - {x: -15.871974, y: 8.08208, z: 1}
  - {x: -13.087079, y: 9.501055, z: 1}
  - {x: -15.8778515, y: 8.09017, z: 0}
  - {x: -18.090172, y: 5.877852, z: 0}
  - {x: -15.8778515, y: 8.09017, z: 1}
  - {x: -18.090172, y: 5.877852, z: 1}
  - {x: -18.08208, y: 5.871974, z: 0}
  - {x: -15.871974, y: 8.08208, z: 0}
  - {x: -18.08208, y: 5.871974, z: 1}
  - {x: -15.871974, y: 8.08208, z: 1}
  - {x: -18.090172, y: 5.877852, z: 0}
  - {x: -19.510565, y: 3.0901704, z: 0}
  - {x: -18.090172, y: 5.877852, z: 1}
  - {x: -19.510565, y: 3.0901704, z: 1}
  - {x: -19.501053, y: 3.08708, z: 0}
  - {x: -18.08208, y: 5.871974, z: 0}
  - {x: -19.501053, y: 3.08708, z: 1}
  - {x: -18.08208, y: 5.871974, z: 1}
  - {x: -19.510565, y: 3.0901704, z: 0}
  - {x: -20, y: -0.0000008742278, z: 0}
  - {x: -19.510565, y: 3.0901704, z: 1}
  - {x: -20, y: -0.0000008742278, z: 1}
  - {x: -19.99, y: -0.00000087335354, z: 0}
  - {x: -19.501053, y: 3.08708, z: 0}
  - {x: -19.99, y: -0.00000087335354, z: 1}
  - {x: -19.501053, y: 3.08708, z: 1}
  - {x: -20, y: -0.0000008742278, z: 0}
  - {x: -19.510567, y: -3.0901697, z: 0}
  - {x: -20, y: -0.0000008742278, z: 1}
  - {x: -19.510567, y: -3.0901697, z: 1}
  - {x: -19.501055, y: -3.0870795, z: 0}
  - {x: -19.99, y: -0.00000087335354, z: 0}
  - {x: -19.501055, y: -3.0870795, z: 1}
  - {x: -19.99, y: -0.00000087335354, z: 1}
  - {x: -19.510567, y: -3.0901697, z: 0}
  - {x: -18.090172, y: -5.8778515, z: 0}
  - {x: -19.510567, y: -3.0901697, z: 1}
  - {x: -18.090172, y: -5.8778515, z: 1}
  - {x: -18.08208, y: -5.871973, z: 0}
  - {x: -19.501055, y: -3.0870795, z: 0}
  - {x: -18.08208, y: -5.871973, z: 1}
  - {x: -19.501055, y: -3.0870795, z: 1}
  - {x: -18.090172, y: -5.8778515, z: 0}
  - {x: -15.877854, y: -8.090168, z: 0}
  - {x: -18.090172, y: -5.8778515, z: 1}
  - {x: -15.877854, y: -8.090168, z: 1}
  - {x: -15.871977, y: -8.082078, z: 0}
  - {x: -18.08208, y: -5.871973, z: 0}
  - {x: -15.871977, y: -8.082078, z: 1}
  - {x: -18.08208, y: -5.871973, z: 1}
  - {x: -15.877854, y: -8.090168, z: 0}
  - {x: -13.090171, y: -9.510565, z: 0}
  - {x: -15.877854, y: -8.090168, z: 1}
  - {x: -13.090171, y: -9.510565, z: 1}
  - {x: -13.087081, y: -9.501054, z: 0}
  - {x: -15.871977, y: -8.082078, z: 0}
  - {x: -13.087081, y: -9.501054, z: 1}
  - {x: -15.871977, y: -8.082078, z: 1}
  - {x: -13.090171, y: -9.510565, z: 0}
  - {x: -10, y: -10, z: 0}
  - {x: -13.090171, y: -9.510565, z: 1}
  - {x: -10, y: -10, z: 1}
  - {x: -10, y: -9.99, z: 0}
  - {x: -13.087081, y: -9.501054, z: 0}
  - {x: -10, y: -9.99, z: 1}
  - {x: -13.087081, y: -9.501054, z: 1}
  - {x: -10, y: -10, z: 0}
  - {x: -6.9098287, y: -9.510565, z: 0}
  - {x: -10, y: -10, z: 1}
  - {x: -6.9098287, y: -9.510565, z: 1}
  - {x: -6.912919, y: -9.501054, z: 0}
  - {x: -10, y: -9.99, z: 0}
  - {x: -6.912919, y: -9.501054, z: 1}
  - {x: -10, y: -9.99, z: 1}
  - {x: -6.9098287, y: -9.510565, z: 0}
  - {x: -4.1221495, y: -8.090171, z: 0}
  - {x: -6.9098287, y: -9.510565, z: 1}
  - {x: -4.1221495, y: -8.090171, z: 1}
  - {x: -4.1280274, y: -8.082081, z: 0}
  - {x: -6.912919, y: -9.501054, z: 0}
  - {x: -4.1280274, y: -8.082081, z: 1}
  - {x: -6.912919, y: -9.501054, z: 1}
  - {x: -4.1221495, y: -8.090171, z: 0}
  - {x: -1.9098301, y: -5.877853, z: 0}
  - {x: -4.1221495, y: -8.090171, z: 1}
  - {x: -1.9098301, y: -5.877853, z: 1}
  - {x: -1.9179211, y: -5.871975, z: 0}
  - {x: -4.1280274, y: -8.082081, z: 0}
  - {x: -1.9179211, y: -5.871975, z: 1}
  - {x: -4.1280274, y: -8.082081, z: 1}
  - {x: -1.9098301, y: -5.877853, z: 0}
  - {x: -0.48943424, y: -3.0901694, z: 0}
  - {x: -1.9098301, y: -5.877853, z: 1}
  - {x: -0.48943424, y: -3.0901694, z: 1}
  - {x: -0.49894524, y: -3.0870793, z: 0}
  - {x: -1.9179211, y: -5.871975, z: 0}
  - {x: -0.49894524, y: -3.0870793, z: 1}
  - {x: -1.9179211, y: -5.871975, z: 1}
  - {x: -0.48943424, y: -3.0901694, z: 0}
  - {x: 0, y: 0.0000017484556, z: 0}
  - {x: -0.48943424, y: -3.0901694, z: 1}
  - {x: 0, y: 0.0000017484556, z: 1}
  - {x: -0.010000229, y: 0.0000017467071, z: 0}
  - {x: -0.49894524, y: -3.0870793, z: 0}
  - {x: -0.010000229, y: 0.0000017467071, z: 1}
  - {x: -0.49894524, y: -3.0870793, z: 1}
  - {x: 0, y: 0, z: 1}
  - {x: -0.48943424, y: 3.09017, z: 1}
  - {x: -0.010000229, y: 0, z: 1}
  - {x: -0.49894524, y: 3.0870798, z: 1}
  - {x: -0.48943424, y: 3.09017, z: 0}
  - {x: 0, y: 0, z: 0}
  - {x: -0.49894524, y: 3.0870798, z: 0}
  - {x: -0.010000229, y: 0, z: 0}
  - {x: -0.48943424, y: 3.09017, z: 1}
  - {x: -1.9098301, y: 5.8778524, z: 1}
  - {x: -0.49894524, y: 3.0870798, z: 1}
  - {x: -1.9179201, y: 5.8719745, z: 1}
  - {x: -1.9098301, y: 5.8778524, z: 0}
  - {x: -0.48943424, y: 3.09017, z: 0}
  - {x: -1.9179201, y: 5.8719745, z: 0}
  - {x: -0.49894524, y: 3.0870798, z: 0}
  - {x: -1.9098301, y: 5.8778524, z: 1}
  - {x: -4.122147, y: 8.09017, z: 1}
  - {x: -1.9179201, y: 5.8719745, z: 1}
  - {x: -4.128025, y: 8.08208, z: 1}
  - {x: -4.122147, y: 8.09017, z: 0}
  - {x: -1.9098301, y: 5.8778524, z: 0}
  - {x: -4.128025, y: 8.08208, z: 0}
  - {x: -1.9179201, y: 5.8719745, z: 0}
  - {x: -4.122147, y: 8.09017, z: 1}
  - {x: -6.90983, y: 9.510566, z: 1}
  - {x: -4.128025, y: 8.08208, z: 1}
  - {x: -6.9129205, y: 9.501055, z: 1}
  - {x: -6.90983, y: 9.510566, z: 0}
  - {x: -4.122147, y: 8.09017, z: 0}
  - {x: -6.9129205, y: 9.501055, z: 0}
  - {x: -4.128025, y: 8.08208, z: 0}
  - {x: -6.90983, y: 9.510566, z: 1}
  - {x: -10, y: 10, z: 1}
  - {x: -6.9129205, y: 9.501055, z: 1}
  - {x: -10, y: 9.99, z: 1}
  - {x: -10, y: 10, z: 0}
  - {x: -6.90983, y: 9.510566, z: 0}
  - {x: -10, y: 9.99, z: 0}
  - {x: -6.9129205, y: 9.501055, z: 0}
  - {x: -10, y: 10, z: 1}
  - {x: -13.09017, y: 9.510566, z: 1}
  - {x: -10, y: 9.99, z: 1}
  - {x: -13.087079, y: 9.501055, z: 1}
  - {x: -13.09017, y: 9.510566, z: 0}
  - {x: -10, y: 10, z: 0}
  - {x: -13.087079, y: 9.501055, z: 0}
  - {x: -10, y: 9.99, z: 0}
  - {x: -13.09017, y: 9.510566, z: 1}
  - {x: -15.8778515, y: 8.09017, z: 1}
  - {x: -13.087079, y: 9.501055, z: 1}
  - {x: -15.871974, y: 8.08208, z: 1}
  - {x: -15.8778515, y: 8.09017, z: 0}
  - {x: -13.09017, y: 9.510566, z: 0}
  - {x: -15.871974, y: 8.08208, z: 0}
  - {x: -13.087079, y: 9.501055, z: 0}
  - {x: -15.8778515, y: 8.09017, z: 1}
  - {x: -18.090172, y: 5.877852, z: 1}
  - {x: -15.871974, y: 8.08208, z: 1}
  - {x: -18.08208, y: 5.871974, z: 1}
  - {x: -18.090172, y: 5.877852, z: 0}
  - {x: -15.8778515, y: 8.09017, z: 0}
  - {x: -18.08208, y: 5.871974, z: 0}
  - {x: -15.871974, y: 8.08208, z: 0}
  - {x: -18.090172, y: 5.877852, z: 1}
  - {x: -19.510565, y: 3.0901704, z: 1}
  - {x: -18.08208, y: 5.871974, z: 1}
  - {x: -19.501053, y: 3.08708, z: 1}
  - {x: -19.510565, y: 3.0901704, z: 0}
  - {x: -18.090172, y: 5.877852, z: 0}
  - {x: -19.501053, y: 3.08708, z: 0}
  - {x: -18.08208, y: 5.871974, z: 0}
  - {x: -19.510565, y: 3.0901704, z: 1}
  - {x: -20, y: -0.0000008742278, z: 1}
  - {x: -19.501053, y: 3.08708, z: 1}
  - {x: -19.99, y: -0.00000087335354, z: 1}
  - {x: -20, y: -0.0000008742278, z: 0}
  - {x: -19.510565, y: 3.0901704, z: 0}
  - {x: -19.99, y: -0.00000087335354, z: 0}
  - {x: -19.501053, y: 3.08708, z: 0}
  - {x: -20, y: -0.0000008742278, z: 1}
  - {x: -19.510567, y: -3.0901697, z: 1}
  - {x: -19.99, y: -0.00000087335354, z: 1}
  - {x: -19.501055, y: -3.0870795, z: 1}
  - {x: -19.510567, y: -3.0901697, z: 0}
  - {x: -20, y: -0.0000008742278, z: 0}
  - {x: -19.501055, y: -3.0870795, z: 0}
  - {x: -19.99, y: -0.00000087335354, z: 0}
  - {x: -19.510567, y: -3.0901697, z: 1}
  - {x: -18.090172, y: -5.8778515, z: 1}
  - {x: -19.501055, y: -3.0870795, z: 1}
  - {x: -18.08208, y: -5.871973, z: 1}
  - {x: -18.090172, y: -5.8778515, z: 0}
  - {x: -19.510567, y: -3.0901697, z: 0}
  - {x: -18.08208, y: -5.871973, z: 0}
  - {x: -19.501055, y: -3.0870795, z: 0}
  - {x: -18.090172, y: -5.8778515, z: 1}
  - {x: -15.877854, y: -8.090168, z: 1}
  - {x: -18.08208, y: -5.871973, z: 1}
  - {x: -15.871977, y: -8.082078, z: 1}
  - {x: -15.877854, y: -8.090168, z: 0}
  - {x: -18.090172, y: -5.8778515, z: 0}
  - {x: -15.871977, y: -8.082078, z: 0}
  - {x: -18.08208, y: -5.871973, z: 0}
  - {x: -15.877854, y: -8.090168, z: 1}
  - {x: -13.090171, y: -9.510565, z: 1}
  - {x: -15.871977, y: -8.082078, z: 1}
  - {x: -13.087081, y: -9.501054, z: 1}
  - {x: -13.090171, y: -9.510565, z: 0}
  - {x: -15.877854, y: -8.090168, z: 0}
  - {x: -13.087081, y: -9.501054, z: 0}
  - {x: -15.871977, y: -8.082078, z: 0}
  - {x: -13.090171, y: -9.510565, z: 1}
  - {x: -10, y: -10, z: 1}
  - {x: -13.087081, y: -9.501054, z: 1}
  - {x: -10, y: -9.99, z: 1}
  - {x: -10, y: -10, z: 0}
  - {x: -13.090171, y: -9.510565, z: 0}
  - {x: -10, y: -9.99, z: 0}
  - {x: -13.087081, y: -9.501054, z: 0}
  - {x: -10, y: -10, z: 1}
  - {x: -6.9098287, y: -9.510565, z: 1}
  - {x: -10, y: -9.99, z: 1}
  - {x: -6.912919, y: -9.501054, z: 1}
  - {x: -6.9098287, y: -9.510565, z: 0}
  - {x: -10, y: -10, z: 0}
  - {x: -6.912919, y: -9.501054, z: 0}
  - {x: -10, y: -9.99, z: 0}
  - {x: -6.9098287, y: -9.510565, z: 1}
  - {x: -4.1221495, y: -8.090171, z: 1}
  - {x: -6.912919, y: -9.501054, z: 1}
  - {x: -4.1280274, y: -8.082081, z: 1}
  - {x: -4.1221495, y: -8.090171, z: 0}
  - {x: -6.9098287, y: -9.510565, z: 0}
  - {x: -4.1280274, y: -8.082081, z: 0}
  - {x: -6.912919, y: -9.501054, z: 0}
  - {x: -4.1221495, y: -8.090171, z: 1}
  - {x: -1.9098301, y: -5.877853, z: 1}
  - {x: -4.1280274, y: -8.082081, z: 1}
  - {x: -1.9179211, y: -5.871975, z: 1}
  - {x: -1.9098301, y: -5.877853, z: 0}
  - {x: -4.1221495, y: -8.090171, z: 0}
  - {x: -1.9179211, y: -5.871975, z: 0}
  - {x: -4.1280274, y: -8.082081, z: 0}
  - {x: -1.9098301, y: -5.877853, z: 1}
  - {x: -0.48943424, y: -3.0901694, z: 1}
  - {x: -1.9179211, y: -5.871975, z: 1}
  - {x: -0.49894524, y: -3.0870793, z: 1}
  - {x: -0.48943424, y: -3.0901694, z: 0}
  - {x: -1.9098301, y: -5.877853, z: 0}
  - {x: -0.49894524, y: -3.0870793, z: 0}
  - {x: -1.9179211, y: -5.871975, z: 0}
  - {x: -0.48943424, y: -3.0901694, z: 1}
  - {x: 0, y: 0.0000017484556, z: 1}
  - {x: -0.49894524, y: -3.0870793, z: 1}
  - {x: -0.010000229, y: 0.0000017467071, z: 1}
  - {x: 0, y: 0.0000017484556, z: 0}
  - {x: -0.48943424, y: -3.0901694, z: 0}
  - {x: -0.010000229, y: 0.0000017467071, z: 0}
  - {x: -0.49894524, y: -3.0870793, z: 0}
  m_Textures0:
  - {x: 0, y: 0}
  - {x: 0, y: 3.128689}
  - {x: 1, y: 0}
  - {x: 1, y: 3.128689}
  - {x: 0, y: 3.127125}
  - {x: 0, y: 0.0015643792}
  - {x: -1, y: 3.127125}
  - {x: -1, y: 0.0015643792}
  - {x: 0, y: 2.97556}
  - {x: 0, y: 6.1042495}
  - {x: 1, y: 2.97556}
  - {x: 1, y: 6.1042495}
  - {x: 0, y: 6.102685}
  - {x: 0, y: 2.9771247}
  - {x: -1, y: 6.102685}
  - {x: -1, y: 2.9771247}
  - {x: -5.5067234, y: 0}
  - {x: -8.635412, y: 0}
  - {x: -5.5067234, y: 1}
  - {x: -8.635412, y: 1}
  - {x: 8.633848, y: 0}
  - {x: 5.5082874, y: 0}
  - {x: 8.633848, y: 1}
  - {x: 5.5082874, y: 1}
  - {x: -7.345721, y: 0}
  - {x: -10.474411, y: 0}
  - {x: -7.345721, y: 1}
  - {x: -10.474411, y: 1}
  - {x: 10.472846, y: 0}
  - {x: 7.347285, y: 0}
  - {x: 10.472846, y: 1}
  - {x: 7.347285, y: 1}
  - {x: -8.312537, y: 0}
  - {x: -11.441227, y: 0}
  - {x: -8.312537, y: 1}
  - {x: -11.441227, y: 1}
  - {x: 11.439663, y: 0}
  - {x: 8.314102, y: 0}
  - {x: 11.439663, y: 1}
  - {x: 8.314102, y: 1}
  - {x: -8.312541, y: 0}
  - {x: -11.44123, y: 0}
  - {x: -8.312541, y: 1}
  - {x: -11.44123, y: 1}
  - {x: 11.439664, y: 0}
  - {x: 8.314104, y: 0}
  - {x: 11.439664, y: 1}
  - {x: 8.314104, y: 1}
  - {x: -7.345715, y: 0}
  - {x: -10.474404, y: 0}
  - {x: -7.345715, y: 1}
  - {x: -10.474404, y: 1}
  - {x: 10.472845, y: 0}
  - {x: 7.3472843, y: 0}
  - {x: 10.472845, y: 1}
  - {x: 7.3472843, y: 1}
  - {x: -5.506732, y: 0}
  - {x: -8.635424, y: 0}
  - {x: -5.506732, y: 1}
  - {x: -8.635424, y: 1}
  - {x: 8.633853, y: 0}
  - {x: 5.508291, y: 0}
  - {x: 8.633853, y: 1}
  - {x: 5.508291, y: 1}
  - {x: 0, y: -2.9755526}
  - {x: 0, y: -6.10424}
  - {x: -1, y: -2.9755526}
  - {x: -1, y: -6.10424}
  - {x: 0, y: -6.1026716}
  - {x: 0, y: -2.977113}
  - {x: 1, y: -6.1026716}
  - {x: 1, y: -2.977113}
  - {x: 0, y: -0.00000024419458}
  - {x: -0, y: -3.128691}
  - {x: -1, y: -0.00000024419458}
  - {x: -1, y: -3.128691}
  - {x: 0, y: -3.127134}
  - {x: 0, y: -0.00157203}
  - {x: 1, y: -3.127134}
  - {x: 1, y: -0.00157203}
  - {x: 0, y: 3.12868}
  - {x: 0, y: -0.000007947802}
  - {x: -1, y: 3.12868}
  - {x: -1, y: -0.000007947802}
  - {x: 0, y: 0.0015633166}
  - {x: 0, y: 3.1271229}
  - {x: 1, y: 0.0015633166}
  - {x: 1, y: 3.1271229}
  - {x: 0, y: 6.104251}
  - {x: 0, y: 2.9755623}
  - {x: -1, y: 6.104251}
  - {x: -1, y: 2.9755623}
  - {x: 0, y: 2.9771254}
  - {x: 0, y: 6.102684}
  - {x: 1, y: 2.9771254}
  - {x: 1, y: 6.102684}
  - {x: 8.635418, y: 0}
  - {x: 5.5067296, y: 0}
  - {x: 8.635418, y: 1}
  - {x: 5.5067296, y: 1}
  - {x: -5.508287, y: 0}
  - {x: -8.633846, y: 0}
  - {x: -5.508287, y: 1}
  - {x: -8.633846, y: 1}
  - {x: 10.474408, y: 0}
  - {x: 7.3457174, y: 0}
  - {x: 10.474408, y: 1}
  - {x: 7.3457174, y: 1}
  - {x: -7.3472843, y: 0}
  - {x: -10.472846, y: 0}
  - {x: -7.3472843, y: 1}
  - {x: -10.472846, y: 1}
  - {x: 11.441229, y: 0}
  - {x: 8.312538, y: 0}
  - {x: 11.441229, y: 1}
  - {x: 8.312538, y: 1}
  - {x: -8.314101, y: 0}
  - {x: -11.439664, y: 0}
  - {x: -8.314101, y: 1}
  - {x: -11.439664, y: 1}
  - {x: 11.441229, y: 0}
  - {x: 8.312538, y: 0}
  - {x: 11.441229, y: 1}
  - {x: 8.312538, y: 1}
  - {x: -8.314102, y: 0}
  - {x: -11.439665, y: 0}
  - {x: -8.314102, y: 1}
  - {x: -11.439665, y: 1}
  - {x: 10.474409, y: 0}
  - {x: 7.3457236, y: 0}
  - {x: 10.474409, y: 1}
  - {x: 7.3457236, y: 1}
  - {x: -7.3472867, y: 0}
  - {x: -10.472843, y: 0}
  - {x: -7.3472867, y: 1}
  - {x: -10.472843, y: 1}
  - {x: 8.635414, y: 0}
  - {x: 5.506723, y: 0}
  - {x: 8.635414, y: 1}
  - {x: 5.506723, y: 1}
  - {x: -5.508288, y: 0}
  - {x: -8.63385, y: 0}
  - {x: -5.508288, y: 1}
  - {x: -8.63385, y: 1}
  - {x: 0, y: -6.10425}
  - {x: 0, y: -2.9755597}
  - {x: 1, y: -6.10425}
  - {x: 1, y: -2.9755597}
  - {x: -0, y: -2.9771242}
  - {x: -0, y: -6.102686}
  - {x: -1, y: -2.9771242}
  - {x: -1, y: -6.102686}
  - {x: 0, y: -3.1286886}
  - {x: 0, y: 0.0000017269292}
  - {x: 1, y: -3.1286886}
  - {x: 1, y: 0.0000017269292}
  - {x: 0, y: -0.0015626535}
  - {x: -0, y: -3.1271243}
  - {x: -1, y: -0.0015626535}
  - {x: -1, y: -3.1271243}
  - {x: 0, y: 0}
  - {x: 0.48943424, y: 3.09017}
  - {x: 0.010000229, y: 0}
  - {x: 0.49894524, y: 3.0870798}
  - {x: -0.48943424, y: 3.09017}
  - {x: 0, y: 0}
  - {x: -0.49894524, y: 3.0870798}
  - {x: -0.010000229, y: 0}
  - {x: 0.48943424, y: 3.09017}
  - {x: 1.9098301, y: 5.8778524}
  - {x: 0.49894524, y: 3.0870798}
  - {x: 1.9179201, y: 5.8719745}
  - {x: -1.9098301, y: 5.8778524}
  - {x: -0.48943424, y: 3.09017}
  - {x: -1.9179201, y: 5.8719745}
  - {x: -0.49894524, y: 3.0870798}
  - {x: 1.9098301, y: 5.8778524}
  - {x: 4.122147, y: 8.09017}
  - {x: 1.9179201, y: 5.8719745}
  - {x: 4.128025, y: 8.08208}
  - {x: -4.122147, y: 8.09017}
  - {x: -1.9098301, y: 5.8778524}
  - {x: -4.128025, y: 8.08208}
  - {x: -1.9179201, y: 5.8719745}
  - {x: 4.122147, y: 8.09017}
  - {x: 6.90983, y: 9.510566}
  - {x: 4.128025, y: 8.08208}
  - {x: 6.9129205, y: 9.501055}
  - {x: -6.90983, y: 9.510566}
  - {x: -4.122147, y: 8.09017}
  - {x: -6.9129205, y: 9.501055}
  - {x: -4.128025, y: 8.08208}
  - {x: 6.90983, y: 9.510566}
  - {x: 10, y: 10}
  - {x: 6.9129205, y: 9.501055}
  - {x: 10, y: 9.99}
  - {x: -10, y: 10}
  - {x: -6.90983, y: 9.510566}
  - {x: -10, y: 9.99}
  - {x: -6.9129205, y: 9.501055}
  - {x: 10, y: 10}
  - {x: 13.09017, y: 9.510566}
  - {x: 10, y: 9.99}
  - {x: 13.087079, y: 9.501055}
  - {x: -13.09017, y: 9.510566}
  - {x: -10, y: 10}
  - {x: -13.087079, y: 9.501055}
  - {x: -10, y: 9.99}
  - {x: 13.09017, y: 9.510566}
  - {x: 15.8778515, y: 8.09017}
  - {x: 13.087079, y: 9.501055}
  - {x: 15.871974, y: 8.08208}
  - {x: -15.8778515, y: 8.09017}
  - {x: -13.09017, y: 9.510566}
  - {x: -15.871974, y: 8.08208}
  - {x: -13.087079, y: 9.501055}
  - {x: 15.8778515, y: 8.09017}
  - {x: 18.090172, y: 5.877852}
  - {x: 15.871974, y: 8.08208}
  - {x: 18.08208, y: 5.871974}
  - {x: -18.090172, y: 5.877852}
  - {x: -15.8778515, y: 8.09017}
  - {x: -18.08208, y: 5.871974}
  - {x: -15.871974, y: 8.08208}
  - {x: 18.090172, y: 5.877852}
  - {x: 19.510565, y: 3.0901704}
  - {x: 18.08208, y: 5.871974}
  - {x: 19.501053, y: 3.08708}
  - {x: -19.510565, y: 3.0901704}
  - {x: -18.090172, y: 5.877852}
  - {x: -19.501053, y: 3.08708}
  - {x: -18.08208, y: 5.871974}
  - {x: 19.510565, y: 3.0901704}
  - {x: 20, y: -0.0000008742278}
  - {x: 19.501053, y: 3.08708}
  - {x: 19.99, y: -0.00000087335354}
  - {x: -20, y: -0.0000008742278}
  - {x: -19.510565, y: 3.0901704}
  - {x: -19.99, y: -0.00000087335354}
  - {x: -19.501053, y: 3.08708}
  - {x: 20, y: -0.0000008742278}
  - {x: 19.510567, y: -3.0901697}
  - {x: 19.99, y: -0.00000087335354}
  - {x: 19.501055, y: -3.0870795}
  - {x: -19.510567, y: -3.0901697}
  - {x: -20, y: -0.0000008742278}
  - {x: -19.501055, y: -3.0870795}
  - {x: -19.99, y: -0.00000087335354}
  - {x: 19.510567, y: -3.0901697}
  - {x: 18.090172, y: -5.8778515}
  - {x: 19.501055, y: -3.0870795}
  - {x: 18.08208, y: -5.871973}
  - {x: -18.090172, y: -5.8778515}
  - {x: -19.510567, y: -3.0901697}
  - {x: -18.08208, y: -5.871973}
  - {x: -19.501055, y: -3.0870795}
  - {x: 18.090172, y: -5.8778515}
  - {x: 15.877854, y: -8.090168}
  - {x: 18.08208, y: -5.871973}
  - {x: 15.871977, y: -8.082078}
  - {x: -15.877854, y: -8.090168}
  - {x: -18.090172, y: -5.8778515}
  - {x: -15.871977, y: -8.082078}
  - {x: -18.08208, y: -5.871973}
  - {x: 15.877854, y: -8.090168}
  - {x: 13.090171, y: -9.510565}
  - {x: 15.871977, y: -8.082078}
  - {x: 13.087081, y: -9.501054}
  - {x: -13.090171, y: -9.510565}
  - {x: -15.877854, y: -8.090168}
  - {x: -13.087081, y: -9.501054}
  - {x: -15.871977, y: -8.082078}
  - {x: 13.090171, y: -9.510565}
  - {x: 10, y: -10}
  - {x: 13.087081, y: -9.501054}
  - {x: 10, y: -9.99}
  - {x: -10, y: -10}
  - {x: -13.090171, y: -9.510565}
  - {x: -10, y: -9.99}
  - {x: -13.087081, y: -9.501054}
  - {x: 10, y: -10}
  - {x: 6.9098287, y: -9.510565}
  - {x: 10, y: -9.99}
  - {x: 6.912919, y: -9.501054}
  - {x: -6.9098287, y: -9.510565}
  - {x: -10, y: -10}
  - {x: -6.912919, y: -9.501054}
  - {x: -10, y: -9.99}
  - {x: 6.9098287, y: -9.510565}
  - {x: 4.1221495, y: -8.090171}
  - {x: 6.912919, y: -9.501054}
  - {x: 4.1280274, y: -8.082081}
  - {x: -4.1221495, y: -8.090171}
  - {x: -6.9098287, y: -9.510565}
  - {x: -4.1280274, y: -8.082081}
  - {x: -6.912919, y: -9.501054}
  - {x: 4.1221495, y: -8.090171}
  - {x: 1.9098301, y: -5.877853}
  - {x: 4.1280274, y: -8.082081}
  - {x: 1.9179211, y: -5.871975}
  - {x: -1.9098301, y: -5.877853}
  - {x: -4.1221495, y: -8.090171}
  - {x: -1.9179211, y: -5.871975}
  - {x: -4.1280274, y: -8.082081}
  - {x: 1.9098301, y: -5.877853}
  - {x: 0.48943424, y: -3.0901694}
  - {x: 1.9179211, y: -5.871975}
  - {x: 0.49894524, y: -3.0870793}
  - {x: -0.48943424, y: -3.0901694}
  - {x: -1.9098301, y: -5.877853}
  - {x: -0.49894524, y: -3.0870793}
  - {x: -1.9179211, y: -5.871975}
  - {x: 0.48943424, y: -3.0901694}
  - {x: 0, y: 0.0000017484556}
  - {x: 0.49894524, y: -3.0870793}
  - {x: 0.010000229, y: 0.0000017467071}
  - {x: 0, y: 0.0000017484556}
  - {x: -0.48943424, y: -3.0901694}
  - {x: -0.010000229, y: 0.0000017467071}
  - {x: -0.49894524, y: -3.0870793}
  m_Textures2: []
  m_Textures3: []
  m_Tangents:
  - {x: 0, y: 0, z: 1, w: -1}
  - {x: 0, y: 0, z: 1, w: -1}
  - {x: 0, y: 0, z: 1, w: -1}
  - {x: 0, y: 0, z: 1, w: -1}
  - {x: 0, y: 0, z: -1, w: -1}
  - {x: 0, y: 0, z: -1, w: -1}
  - {x: 0, y: 0, z: -1, w: -1}
  - {x: 0, y: 0, z: -1, w: -1}
  - {x: 0, y: 0, z: 1, w: -1}
  - {x: 0, y: 0, z: 1, w: -1}
  - {x: 0, y: 0, z: 1, w: -1}
  - {x: 0, y: 0, z: 1, w: -1}
  - {x: 0, y: 0, z: -1, w: -1}
  - {x: 0, y: 0, z: -1, w: -1}
  - {x: 0, y: 0, z: -1, w: -1}
  - {x: 0, y: 0, z: -1, w: -1}
  - {x: 0.70710677, y: -0.7071068, z: 0, w: -1}
  - {x: 0.70710677, y: -0.7071068, z: 0, w: -1}
  - {x: 0.70710677, y: -0.7071068, z: 0, w: -1}
  - {x: 0.70710677, y: -0.7071068, z: 0, w: -1}
  - {x: -0.7071067, y: 0.7071069, z: 0, w: -1}
  - {x: -0.7071067, y: 0.7071069, z: 0, w: -1}
  - {x: -0.7071067, y: 0.7071069, z: 0, w: -1}
  - {x: -0.7071067, y: 0.7071069, z: 0, w: -1}
  - {x: 0.89100647, y: -0.4539906, z: 0, w: -1}
  - {x: 0.89100647, y: -0.4539906, z: 0, w: -1}
  - {x: 0.89100647, y: -0.4539906, z: 0, w: -1}
  - {x: 0.89100647, y: -0.4539906, z: 0, w: -1}
  - {x: -0.8910066, y: 0.45399046, z: 0, w: -1}
  - {x: -0.8910066, y: 0.45399046, z: 0, w: -1}
  - {x: -0.8910066, y: 0.45399046, z: 0, w: -1}
  - {x: -0.8910066, y: 0.45399046, z: 0, w: -1}
  - {x: 0.98768836, y: -0.1564343, z: 0, w: -1}
  - {x: 0.98768836, y: -0.1564343, z: 0, w: -1}
  - {x: 0.98768836, y: -0.1564343, z: 0, w: -1}
  - {x: 0.98768836, y: -0.1564343, z: 0, w: -1}
  - {x: -0.98768836, y: 0.15643436, z: 0, w: -1}
  - {x: -0.98768836, y: 0.15643436, z: 0, w: -1}
  - {x: -0.98768836, y: 0.15643436, z: 0, w: -1}
  - {x: -0.98768836, y: 0.15643436, z: 0, w: -1}
  - {x: 0.9876884, y: 0.15643431, z: 0, w: -1}
  - {x: 0.9876884, y: 0.15643431, z: 0, w: -1}
  - {x: 0.9876884, y: 0.15643431, z: 0, w: -1}
  - {x: 0.9876884, y: 0.15643431, z: 0, w: -1}
  - {x: -0.98768836, y: -0.15643437, z: 0, w: -1}
  - {x: -0.98768836, y: -0.15643437, z: 0, w: -1}
  - {x: -0.98768836, y: -0.15643437, z: 0, w: -1}
  - {x: -0.98768836, y: -0.15643437, z: 0, w: -1}
  - {x: 0.8910064, y: 0.45399082, z: 0, w: -1}
  - {x: 0.8910064, y: 0.45399082, z: 0, w: -1}
  - {x: 0.8910064, y: 0.45399082, z: 0, w: -1}
  - {x: 0.8910064, y: 0.45399082, z: 0, w: -1}
  - {x: -0.8910065, y: -0.45399052, z: 0, w: -1}
  - {x: -0.8910065, y: -0.45399052, z: 0, w: -1}
  - {x: -0.8910065, y: -0.45399052, z: 0, w: -1}
  - {x: -0.8910065, y: -0.45399052, z: 0, w: -1}
  - {x: 0.7071072, y: 0.7071064, z: 0, w: -1}
  - {x: 0.7071072, y: 0.7071064, z: 0, w: -1}
  - {x: 0.7071072, y: 0.7071064, z: 0, w: -1}
  - {x: 0.7071072, y: 0.7071064, z: 0, w: -1}
  - {x: -0.70710695, y: -0.70710665, z: 0, w: -1}
  - {x: -0.70710695, y: -0.70710665, z: 0, w: -1}
  - {x: -0.70710695, y: -0.70710665, z: 0, w: -1}
  - {x: -0.70710695, y: -0.70710665, z: 0, w: -1}
  - {x: 0, y: 0, z: -1, w: -1}
  - {x: 0, y: 0, z: -1, w: -1}
  - {x: 0, y: 0, z: -1, w: -1}
  - {x: 0, y: 0, z: -1, w: -1}
  - {x: 0, y: 0, z: 1, w: -1}
  - {x: 0, y: 0, z: 1, w: -1}
  - {x: 0, y: 0, z: 1, w: -1}
  - {x: 0, y: 0, z: 1, w: -1}
  - {x: 0, y: 0, z: -1, w: -1}
  - {x: 0, y: 0, z: -1, w: -1}
  - {x: 0, y: 0, z: -1, w: -1}
  - {x: 0, y: 0, z: -1, w: -1}
  - {x: 0, y: 0, z: 1, w: -1}
  - {x: 0, y: 0, z: 1, w: -1}
  - {x: 0, y: 0, z: 1, w: -1}
  - {x: 0, y: 0, z: 1, w: -1}
  - {x: 0, y: 0, z: -1, w: -1}
  - {x: 0, y: 0, z: -1, w: -1}
  - {x: 0, y: 0, z: -1, w: -1}
  - {x: 0, y: 0, z: -1, w: -1}
  - {x: 0, y: 0, z: 1, w: -1}
  - {x: 0, y: 0, z: 1, w: -1}
  - {x: 0, y: 0, z: 1, w: -1}
  - {x: 0, y: 0, z: 1, w: -1}
  - {x: 0, y: 0, z: -1, w: -1}
  - {x: 0, y: 0, z: -1, w: -1}
  - {x: 0, y: 0, z: -1, w: -1}
  - {x: 0, y: 0, z: -1, w: -1}
  - {x: 0, y: 0, z: 1, w: -1}
  - {x: 0, y: 0, z: 1, w: -1}
  - {x: 0, y: 0, z: 1, w: -1}
  - {x: 0, y: 0, z: 1, w: -1}
  - {x: -0.70710695, y: 0.70710665, z: 0, w: -1}
  - {x: -0.70710695, y: 0.70710665, z: 0, w: -1}
  - {x: -0.70710695, y: 0.70710665, z: 0, w: -1}
  - {x: -0.70710695, y: 0.70710665, z: 0, w: -1}
  - {x: 0.70710665, y: -0.70710695, z: 0, w: -1}
  - {x: 0.70710665, y: -0.70710695, z: 0, w: -1}
  - {x: 0.70710665, y: -0.70710695, z: 0, w: -1}
  - {x: 0.70710665, y: -0.70710695, z: 0, w: -1}
  - {x: -0.8910064, y: 0.4539908, z: 0, w: -1}
  - {x: -0.8910064, y: 0.4539908, z: 0, w: -1}
  - {x: -0.8910064, y: 0.4539908, z: 0, w: -1}
  - {x: -0.8910064, y: 0.4539908, z: 0, w: -1}
  - {x: 0.89100647, y: -0.45399064, z: 0, w: -1}
  - {x: 0.89100647, y: -0.45399064, z: 0, w: -1}
  - {x: 0.89100647, y: -0.45399064, z: 0, w: -1}
  - {x: 0.89100647, y: -0.45399064, z: 0, w: -1}
  - {x: -0.98768836, y: 0.15643454, z: 0, w: -1}
  - {x: -0.98768836, y: 0.15643454, z: 0, w: -1}
  - {x: -0.98768836, y: 0.15643454, z: 0, w: -1}
  - {x: -0.98768836, y: 0.15643454, z: 0, w: -1}
  - {x: 0.98768836, y: -0.15643458, z: 0, w: -1}
  - {x: 0.98768836, y: -0.15643458, z: 0, w: -1}
  - {x: 0.98768836, y: -0.15643458, z: 0, w: -1}
  - {x: 0.98768836, y: -0.15643458, z: 0, w: -1}
  - {x: -0.98768836, y: -0.1564345, z: 0, w: -1}
  - {x: -0.98768836, y: -0.1564345, z: 0, w: -1}
  - {x: -0.98768836, y: -0.1564345, z: 0, w: -1}
  - {x: -0.98768836, y: -0.1564345, z: 0, w: -1}
  - {x: 0.98768836, y: 0.15643458, z: 0, w: -1}
  - {x: 0.98768836, y: 0.15643458, z: 0, w: -1}
  - {x: 0.98768836, y: 0.15643458, z: 0, w: -1}
  - {x: 0.98768836, y: 0.15643458, z: 0, w: -1}
  - {x: -0.8910065, y: -0.45399064, z: 0, w: -1}
  - {x: -0.8910065, y: -0.45399064, z: 0, w: -1}
  - {x: -0.8910065, y: -0.45399064, z: 0, w: -1}
  - {x: -0.8910065, y: -0.45399064, z: 0, w: -1}
  - {x: 0.8910066, y: 0.45399046, z: 0, w: -1}
  - {x: 0.8910066, y: 0.45399046, z: 0, w: -1}
  - {x: 0.8910066, y: 0.45399046, z: 0, w: -1}
  - {x: 0.8910066, y: 0.45399046, z: 0, w: -1}
  - {x: -0.707107, y: -0.70710653, z: 0, w: -1}
  - {x: -0.707107, y: -0.70710653, z: 0, w: -1}
  - {x: -0.707107, y: -0.70710653, z: 0, w: -1}
  - {x: -0.707107, y: -0.70710653, z: 0, w: -1}
  - {x: 0.7071068, y: 0.7071067, z: 0, w: -1}
  - {x: 0.7071068, y: 0.7071067, z: 0, w: -1}
  - {x: 0.7071068, y: 0.7071067, z: 0, w: -1}
  - {x: 0.7071068, y: 0.7071067, z: 0, w: -1}
  - {x: 0, y: 0, z: 1, w: -1}
  - {x: 0, y: 0, z: 1, w: -1}
  - {x: 0, y: 0, z: 1, w: -1}
  - {x: 0, y: 0, z: 1, w: -1}
  - {x: 0, y: 0, z: -1, w: -1}
  - {x: 0, y: 0, z: -1, w: -1}
  - {x: 0, y: 0, z: -1, w: -1}
  - {x: 0, y: 0, z: -1, w: -1}
  - {x: 0, y: 0, z: 1, w: -1}
  - {x: 0, y: 0, z: 1, w: -1}
  - {x: 0, y: 0, z: 1, w: -1}
  - {x: 0, y: 0, z: 1, w: -1}
  - {x: 0, y: 0, z: -1, w: -1}
  - {x: 0, y: 0, z: -1, w: -1}
  - {x: 0, y: 0, z: -1, w: -1}
  - {x: 0, y: 0, z: -1, w: -1}
  - {x: -1, y: 0, z: 0, w: -1}
  - {x: -1, y: 0, z: 0, w: -1}
  - {x: -1, y: 0, z: 0, w: -1}
  - {x: -1, y: 0, z: 0, w: -1}
  - {x: 1, y: 0, z: 0, w: -1}
  - {x: 1, y: 0, z: 0, w: -1}
  - {x: 1, y: 0, z: 0, w: -1}
  - {x: 1, y: 0, z: 0, w: -1}
  - {x: -1, y: 0, z: 0, w: -1}
  - {x: -1, y: 0, z: 0, w: -1}
  - {x: -1, y: 0, z: 0, w: -1}
  - {x: -1, y: 0, z: 0, w: -1}
  - {x: 1, y: 0, z: 0, w: -1}
  - {x: 1, y: 0, z: 0, w: -1}
  - {x: 1, y: 0, z: 0, w: -1}
  - {x: 1, y: 0, z: 0, w: -1}
  - {x: -1, y: 0, z: 0, w: -1}
  - {x: -1, y: 0, z: 0, w: -1}
  - {x: -1, y: 0, z: 0, w: -1}
  - {x: -1, y: 0, z: 0, w: -1}
  - {x: 1, y: 0, z: 0, w: -1}
  - {x: 1, y: 0, z: 0, w: -1}
  - {x: 1, y: 0, z: 0, w: -1}
  - {x: 1, y: 0, z: 0, w: -1}
  - {x: -1, y: 0, z: 0, w: -1}
  - {x: -1, y: 0, z: 0, w: -1}
  - {x: -1, y: 0, z: 0, w: -1}
  - {x: -1, y: 0, z: 0, w: -1}
  - {x: 1, y: 0, z: 0, w: -1}
  - {x: 1, y: 0, z: 0, w: -1}
  - {x: 1, y: 0, z: 0, w: -1}
  - {x: 1, y: 0, z: 0, w: -1}
  - {x: -1, y: 0, z: 0, w: -1}
  - {x: -1, y: 0, z: 0, w: -1}
  - {x: -1, y: 0, z: 0, w: -1}
  - {x: -1, y: 0, z: 0, w: -1}
  - {x: 1, y: 0, z: 0, w: -1}
  - {x: 1, y: 0, z: 0, w: -1}
  - {x: 1, y: 0, z: 0, w: -1}
  - {x: 1, y: 0, z: 0, w: -1}
  - {x: -1, y: 0, z: 0, w: -1}
  - {x: -1, y: 0, z: 0, w: -1}
  - {x: -1, y: 0, z: 0, w: -1}
  - {x: -1, y: 0, z: 0, w: -1}
  - {x: 1, y: 0, z: 0, w: -1}
  - {x: 1, y: 0, z: 0, w: -1}
  - {x: 1, y: 0, z: 0, w: -1}
  - {x: 1, y: 0, z: 0, w: -1}
  - {x: -1, y: 0, z: 0, w: -1}
  - {x: -1, y: 0, z: 0, w: -1}
  - {x: -1, y: 0, z: 0, w: -1}
  - {x: -1, y: 0, z: 0, w: -1}
  - {x: 1, y: 0, z: 0, w: -1}
  - {x: 1, y: 0, z: 0, w: -1}
  - {x: 1, y: 0, z: 0, w: -1}
  - {x: 1, y: 0, z: 0, w: -1}
  - {x: -1, y: 0, z: 0, w: -1}
  - {x: -1, y: 0, z: 0, w: -1}
  - {x: -1, y: 0, z: 0, w: -1}
  - {x: -1, y: 0, z: 0, w: -1}
  - {x: 1, y: 0, z: 0, w: -1}
  - {x: 1, y: 0, z: 0, w: -1}
  - {x: 1, y: 0, z: 0, w: -1}
  - {x: 1, y: 0, z: 0, w: -1}
  - {x: -1, y: 0, z: 0, w: -1}
  - {x: -1, y: 0, z: 0, w: -1}
  - {x: -1, y: 0, z: 0, w: -1}
  - {x: -1, y: 0, z: 0, w: -1}
  - {x: 1, y: 0, z: 0, w: -1}
  - {x: 1, y: 0, z: 0, w: -1}
  - {x: 1, y: 0, z: 0, w: -1}
  - {x: 1, y: 0, z: 0, w: -1}
  - {x: -1, y: 0, z: 0, w: -1}
  - {x: -1, y: 0, z: 0, w: -1}
  - {x: -1, y: 0, z: 0, w: -1}
  - {x: -1, y: 0, z: 0, w: -1}
  - {x: 1, y: 0, z: 0, w: -1}
  - {x: 1, y: 0, z: 0, w: -1}
  - {x: 1, y: 0, z: 0, w: -1}
  - {x: 1, y: 0, z: 0, w: -1}
  - {x: -1, y: 0, z: 0, w: -1}
  - {x: -1, y: 0, z: 0, w: -1}
  - {x: -1, y: 0, z: 0, w: -1}
  - {x: -1, y: 0, z: 0, w: -1}
  - {x: 1, y: 0, z: 0, w: -1}
  - {x: 1, y: 0, z: 0, w: -1}
  - {x: 1, y: 0, z: 0, w: -1}
  - {x: 1, y: 0, z: 0, w: -1}
  - {x: -1, y: 0, z: 0, w: -1}
  - {x: -1, y: 0, z: 0, w: -1}
  - {x: -1, y: 0, z: 0, w: -1}
  - {x: -1, y: 0, z: 0, w: -1}
  - {x: 1, y: 0, z: 0, w: -1}
  - {x: 1, y: 0, z: 0, w: -1}
  - {x: 1, y: 0, z: 0, w: -1}
  - {x: 1, y: 0, z: 0, w: -1}
  - {x: -1, y: 0, z: 0, w: -1}
  - {x: -1, y: 0, z: 0, w: -1}
  - {x: -1, y: 0, z: 0, w: -1}
  - {x: -1, y: 0, z: 0, w: -1}
  - {x: 1, y: 0, z: 0, w: -1}
  - {x: 1, y: 0, z: 0, w: -1}
  - {x: 1, y: 0, z: 0, w: -1}
  - {x: 1, y: 0, z: 0, w: -1}
  - {x: -1, y: 0, z: 0, w: -1}
  - {x: -1, y: 0, z: 0, w: -1}
  - {x: -1, y: 0, z: 0, w: -1}
  - {x: -1, y: 0, z: 0, w: -1}
  - {x: 1, y: 0, z: 0, w: -1}
  - {x: 1, y: 0, z: 0, w: -1}
  - {x: 1, y: 0, z: 0, w: -1}
  - {x: 1, y: 0, z: 0, w: -1}
  - {x: -1, y: 0, z: 0, w: -1}
  - {x: -1, y: 0, z: 0, w: -1}
  - {x: -1, y: 0, z: 0, w: -1}
  - {x: -1, y: 0, z: 0, w: -1}
  - {x: 1, y: 0, z: 0, w: -1}
  - {x: 1, y: 0, z: 0, w: -1}
  - {x: 1, y: 0, z: 0, w: -1}
  - {x: 1, y: 0, z: 0, w: -1}
  - {x: -1, y: 0, z: 0, w: -1}
  - {x: -1, y: 0, z: 0, w: -1}
  - {x: -1, y: 0, z: 0, w: -1}
  - {x: -1, y: 0, z: 0, w: -1}
  - {x: 1, y: 0, z: 0, w: -1}
  - {x: 1, y: 0, z: 0, w: -1}
  - {x: 1, y: 0, z: 0, w: -1}
  - {x: 1, y: 0, z: 0, w: -1}
  - {x: -1, y: 0, z: 0, w: -1}
  - {x: -1, y: 0, z: 0, w: -1}
  - {x: -1, y: 0, z: 0, w: -1}
  - {x: -1, y: 0, z: 0, w: -1}
  - {x: 1, y: 0, z: 0, w: -1}
  - {x: 1, y: 0, z: 0, w: -1}
  - {x: 1, y: 0, z: 0, w: -1}
  - {x: 1, y: 0, z: 0, w: -1}
  - {x: -1, y: 0, z: 0, w: -1}
  - {x: -1, y: 0, z: 0, w: -1}
  - {x: -1, y: 0, z: 0, w: -1}
  - {x: -1, y: 0, z: 0, w: -1}
  - {x: 1, y: 0, z: 0, w: -1}
  - {x: 1, y: 0, z: 0, w: -1}
  - {x: 1, y: 0, z: 0, w: -1}
  - {x: 1, y: 0, z: 0, w: -1}
  - {x: -1, y: 0, z: 0, w: -1}
  - {x: -1, y: 0, z: 0, w: -1}
  - {x: -1, y: 0, z: 0, w: -1}
  - {x: -1, y: 0, z: 0, w: -1}
  - {x: 1, y: 0, z: 0, w: -1}
  - {x: 1, y: 0, z: 0, w: -1}
  - {x: 1, y: 0, z: 0, w: -1}
  - {x: 1, y: 0, z: 0, w: -1}
  - {x: -1, y: 0, z: 0, w: -1}
  - {x: -1, y: 0, z: 0, w: -1}
  - {x: -1, y: 0, z: 0, w: -1}
  - {x: -1, y: 0, z: 0, w: -1}
  - {x: 1, y: 0, z: 0, w: -1}
  - {x: 1, y: 0, z: 0, w: -1}
  - {x: 1, y: 0, z: 0, w: -1}
  - {x: 1, y: 0, z: 0, w: -1}
  m_Colors: []
  m_UnwrapParameters:
    m_HardAngle: 88
    m_PackMargin: 20
    m_AngleError: 8
    m_AreaError: 15
  m_PreserveMeshAssetOnDestroy: 0
  assetGuid: 
  m_Mesh: {fileID: 0}
  m_IsSelectable: 1
  m_SelectedFaces: 
  m_SelectedEdges: []
  m_SelectedVertices: 
--- !u!23 &6081220738729643113
MeshRenderer:
  m_ObjectHideFlags: 0
  m_CorrespondingSourceObject: {fileID: 0}
  m_PrefabInstance: {fileID: 0}
  m_PrefabAsset: {fileID: 0}
  m_GameObject: {fileID: 3213823317528260637}
  m_Enabled: 1
  m_CastShadows: 1
  m_ReceiveShadows: 1
  m_DynamicOccludee: 1
  m_MotionVectors: 1
  m_LightProbeUsage: 1
  m_ReflectionProbeUsage: 1
  m_RayTracingMode: 2
  m_RayTraceProcedural: 0
  m_RenderingLayerMask: 1
  m_RendererPriority: 0
  m_Materials:
  - {fileID: 2100000, guid: b943898b2b9c5ee4a888999f2868f359, type: 2}
  m_StaticBatchInfo:
    firstSubMesh: 0
    subMeshCount: 0
  m_StaticBatchRoot: {fileID: 0}
  m_ProbeAnchor: {fileID: 0}
  m_LightProbeVolumeOverride: {fileID: 0}
  m_ScaleInLightmap: 1
  m_ReceiveGI: 1
  m_PreserveUVs: 0
  m_IgnoreNormalsForChartDetection: 0
  m_ImportantGI: 0
  m_StitchLightmapSeams: 1
  m_SelectedEditorRenderState: 2
  m_MinimumChartSize: 4
  m_AutoUVMaxDistance: 0.5
  m_AutoUVMaxAngle: 89
  m_LightmapParameters: {fileID: 0}
  m_SortingLayerID: 0
  m_SortingLayer: 0
  m_SortingOrder: 0
  m_AdditionalVertexStreams: {fileID: 0}
--- !u!33 &4578304043769029009
MeshFilter:
  m_ObjectHideFlags: 0
  m_CorrespondingSourceObject: {fileID: 0}
  m_PrefabInstance: {fileID: 0}
  m_PrefabAsset: {fileID: 0}
  m_GameObject: {fileID: 3213823317528260637}
  m_Mesh: {fileID: 0}
--- !u!64 &2895876472971960932
MeshCollider:
  m_ObjectHideFlags: 0
  m_CorrespondingSourceObject: {fileID: 0}
  m_PrefabInstance: {fileID: 0}
  m_PrefabAsset: {fileID: 0}
  m_GameObject: {fileID: 3213823317528260637}
  m_Material: {fileID: 0}
  m_IsTrigger: 0
  m_Enabled: 1
  serializedVersion: 4
  m_Convex: 0
  m_CookingOptions: 30
  m_Mesh: {fileID: 0}
